"MERCHANT_GROUP","COUNT(*)"
"HSPT_BANGKOK","99"
"DINN_BOONTONGKEE","11"
"AIRL_THAIAIRWAYS","131"
"AIRL_ANAJAPAN","155"
"FAHN_LACOSTE","60"
"FAHN_KIPLING","51"
"DINN_OISHI_GRAND","3"
"DINN_OISHI_SHABUSHI","130"
"CSMT_SEPHORA","75"
"DINN_CRG_PEPPERLUNCH","55"
"TLCM_OTHER","798"
"INSR_MANULIFE","483"
"DINN_DAIDOMON","9"
"DPTM_FAIRYLAND","4"
"CRRN_GRAB","5"
"HYPM_FOODLAND","40"
"DINN_TALINGPLING","16"
"DINN_BONCHON","70"
"HTEL_VERANDA","17"
"BEAU_NITIPOL","188"
"HTEL_DUSIT","36"
"DINN_SAVOEY","31"
"INSR_SCB","48"
"DPTM_CHUMPHONOCEAN","13"
"HSHL_MODERNFORM","11"
"ELCT_POWERBUY","173"
"DINN_BARBQPLAZA","247"
"INSR_SYNMUNKONG","209"
"AIRL_QATARAIR","330"
"HTEL_ACCOR_PULLMAN","25"
"DPTM_KLANGPLAZA","12"
"PETS_PKPETMART","3"
"UTLT_MEA","2"
"ONLN_GOOGLE","3205"
"CSMT_NUSKIN","42"
"SPRT_DECATHLON","31"
"AIRL_JETSTARAIR","323"
"AIRL_JAPANAIR","89"
"HTEL_HARDROCK","7"
"ATMB_CHEVROLET","20"
"DINN_KIMJU","28"
"INSR_THAIVIVAT","20"
"AIRL_CANADA","4"
"DPTM_PARAGON","5"
"HSHL_INDEX","101"
"HYPM_BOOTS","635"
"INSR_ALIFE","4"
"PETS_MALETKHAOPET","6"
"HSPT_BANGPAKOK","15"
"DINN_TEXASSUKI","8"
"SPRT_OTHER","1700"
"ELCT_BANANAIT","123"
"DINN_NARAIPIZZARIA","36"
"INSR_SCILIFE","537"
"DINN_SAKURA","22"
"DINN_KALAPRAPRUEK","2"
"PETS_ROYALCANIN","2"
"CRRN_KRUNGTHAI","2"
"DINN_THEPIZZA","345"
"DINN_MCDONALD","387"
"DINN_KFC","7"
"INSR_BANGKOKINSURANCE","80"
"DINN_POMODORO_GUSTOSO","6"
"HSPT_VIBHARAM","17"
"RLST_AP","11"
"AIRL_AIRASIA","13559"
"DINN_SUSHIMASA","5"
"HTEL_CENTARA","69"
"BEAU_APEX","29"
"AIRL_PHILIPPINE","15"
"DINN_ICHITAN_MELTME","8"
"TRVL_COSMOS","1"
"HSPT_BANGKOKCHRISTIAN","10"
"TRVL_AGODA","7"
"HSPT_VIBHAVADI","10"
"ELCT_CAMERAWORLD","60"
"HSPT_LADPRAO","8"
"AIRL_FRANCE","70"
"DINN_FOURSEASONS","14"
"FAHN_MANGO","90"
"FAHN_BOSSINI","50"
"DRUG_ICAREHEALTH","24"
"INSR_DHIPAYA","69"
"TRVL_CHAIRAK","11"
"AIRL_DUTCH","116"
"DINN_SANSAB","16"
"TRVL_WONDERFUL","4"
"ELCT_PHOTOHUT","2"
"HYPM_OTHER","5358"
"INSR_TESCO","95"
"DINN_STARBUCKS","975"
"AIRL_OTHER","2204"
"CSMT_ORIENTAL","664"
"CRRN_AVIS","100"
"ELCT_BIGCAMERA","237"
"HTEL_HYATT","46"
"INSR_VIRIYAH","100"
"DINN_CRG_OOTOYA","109"
"HSHL_HOMEHUB","19"
"AIRL_DELTA","80"
"CSMT_BODYSHOP","18"
"ELCT_APPLE","1"
"TRVL_DISCOVERY","1"
"TLCM_3BB","836"
"ONLN_OMISE","97"
"HYPM_GOURMET","24"
"HTEL_AIRBNB","405"
"HSPT_NONTHAVEJ","8"
"FAHN_ZALORA","5"
"FAHN_LOUISVUITTON","9"
"HYPM_GOLDENPLACE","23"
"HYPM_MAKRO","120"
"CRRN_THAIRENT","32"
"JWLR_PANDORA","31"
"HSPT_KLUAYNAMTHAI","10"
"DPTM_PARADISE","3"
"HTEL_LERMERIDIEN","21"
"HSPT_BUMRUNGRAD","3"
"OTHR_OTHER","19673"
"DPTM_OTHER","4196"
"DINN_HUAPLACHONG","47"
"KIDS_TOYS_STATION","5"
"HSPT_HUACHIEW","5"
"ATMB_MAZDA","79"
"HSPT_SIKARIN","6"
"HSPT_SAMITIVEJSRIRACHA","6"
"DINN_ICHITAN_TOKIYA","3"
"ONLN_FACEBOOK","8430"
"TLCM_TOT","566"
"DPTM_ISETON","27"
"SLMM_SLIMUP","25"
"HSPL_MRT","36"
"HSHL_KONCEPT","2"
"HSPT_SAMITIVEJSRINAKARIN","8"
"HSPT_CHIANGMAIRAM","6"
"PETS_OTHER","1521"
"HYPM_711","911"
"DINN_CRG_CHABUTON","48"
"BEAU_ROMRAWIN","44"
"HTEL_HILTON","83"
"INSR_THAIOCEAN","52"
"INSR_AIG","21"
"DPTM_KANOCKAN","6"
"ATMB_AAS","3"
"DINN_OISHI_EXPRESS","2"
"ONLN_BLUEPAY","3"
"BEAU_PORNKASEM","101"
"HTEL_ACCOR_SOFITEL","28"
"INSR_THAIINSURANCE","431"
"HSPT_VEJTHANI","9"
"DINN_SCOOZI","41"
"CSMT_KARMART","26"
"BEAU_PRUKSA","46"
"ATMB_SUZUKI","43"
"DINN_DAKGALBI","28"
"HSPT_SIKARINHATYAI","1"
"ONLN_PAYPAL","5332"
"INSR_TQM","11"
"CRRN_BUDGET","7"
"BEAU_SPARSHA","49"
"PETS_THONGLORPET","40"
"HSPT_CHULA","13"
"INSR_ASIA","22"
"TRVL_FOREVER","1"
"ONLN_WEMALL","4"
"HSHL_CHANINTR","3"
"TLCM_TTANDT","1"
"TRVL_CHEAPTICKET","2"
"HSPL_BTS","105"
"INSR_MUANGTHAILIFE","3384"
"HSPT_PAOLO","20"
"CSMT_CUTEPRESS","281"
"HSPT_THAINAKARIN","7"
"HSHL_MEGAHOME","30"
"RLST_ANANDA","11"
"KIDS_KIDZUKA","1"
"TRVL_SBA","1"
"HSHL_THAIWATSADU","1"
"FUND_MFC","1"
"HSPL_THAITICKET","14"
"HSHL_HAFELE","7"
"DPTM_SERMTHAICOMPLEX","6"
"DINN_CRG_TERRACE","42"
"DINN_SEEFAH","61"
"SLMM_MARIEFRANCE","1"
"DINN_KASAJAPANESE","37"
"HSPL_OTHER","1182"
"DINN_BLACKCANYON","179"
"CSMT_OTHER","3230"
"HTEL_MARIOTT","71"
"ATMB_BQUIK","332"
"INSR_AACP","687"
"INSR_FWD","82"
"BEAU_KLINIQUE","38"
"DINN_DEANDELUCA","20"
"FAHN_CHANEL","3"
"DPTM_KADKAM","2"
"DINN_YUMSAAP","103"
"SPRT_FBT","14"
"FAHN_OPTICAL88","81"
"JWLR_MODERNOPTICAL","20"
"PTRL_CALTEX","9"
"KIDS_NADZ_PROJECT","3"
"DINN_HONGMIN","25"
"SPRT_SPORTWORLD","47"
"SPRT_SUPERSPORT","371"
"ATMB_HONDA","515"
"RLST_OTHER","1063"
"DINN_OISHI_RAMEN","11"
"ELCT_ADVICE","143"
"ATMB_TOYOTA","807"
"DINN_CRG_COLDSTONE","45"
"INSR_GENERALI","67"
"DINN_COCO_ICHIBAN","12"
"KIDS_KIDDO_PACIFIC","2"
"FAHN_HANDM","163"
"DINN_SUKISHI_BBQ","89"
"TLCM_CAT","130"
"KIDS_TOYRUS","33"
"DINN_COCA","37"
"HSPT_KASEMRAD","26"
"INSR_THANACHARTLIFE","11"
"DPTM_EMQUARTIER","6"
"HSHL_CPAC","8"
"DINN_LITTLEHOME","20"
"BEAU_FITNESSFIRST","186"
"ATMB_ISUZU","256"
"HSPT_BNH","6"
"JWLR_CITYCHAIN","36"
"KIDS_ROCKINGKIDS","1"
"HSPT_OTHER","928"
"DPTM_THEMALL","48"
"ATMB_FORD","41"
"HTEL_SIAMKEMPINSKI","2"
"HSPT_BANGMOD","5"
"CRRN_RENTALCARS","10"
"TRVL_CHARAL","8"
"DPTM_SERMTHAIPLAZA","2"
"DINN_YAYOI","162"
"TLCM_TRUE","16907"
"FAHN_LEVI","101"
"BEAU_RAJDHEVEE","104"
"HTEL_ACCOR_IBIS","81"
"INSR_MUANGTHAIINS","14"
"PETS_DOCTORNOK","3"
"INSR_SIAMSAMSUNG","21"
"AIRL_THAISMILES","294"
"FUND_LANDNHOUSE","1"
"HTEL_INTERCONTINENTAL","18"
"AIRL_BRITISHAIR","59"
"ATMB_BRIDGESTONE","179"
"DRUG_GNC","47"
"AIRL_NEWZEALAND","9"
"ONLN_ITUNE","5"
"JWLR_MAETHONGSUK","6"
"HSPT_PIYAVATE","7"
"ELCT_TRUE","972"
"DINN_NITTAYAKAI","45"
"CSMT_BEAUTYBUFFET","334"
"DUTY_KINGPOWER","91"
"DRUG_FASCINO","129"
"HTEL_ANANTARA","31"
"DINN_GOODVIEW","15"
"INSR_CHAOPRAYA","5"
"RLST_NARAI","2"
"DINN_ZEN_ON_TABLE","43"
"FAHN_LYN","248"
"HYPM_VILLAMARKET","94"
"JWLR_BETTERVISION","231"
"EDUC_OTHER","2391"
"DINN_SANTAFESTEAK","213"
"HTEL_AMARI","28"
"AIRL_AMERICAN","72"
"DINN_YUU_JANG","3"
"ONLN_AIRPAY","4"
"KIDS_ALPHAKID","3"
"TLCM_AIS","19"
"BEAU_WEFITNESS","414"
"RLST_LPN","20"
"TRVL_BOOKING","23"
"AIRL_SWISSAIR","44"
"HTEL_LIMACOCO","3"
"TRVL_QUALITY","3"
"HYPM_BIGC","1138"
"FAHN_CHAPS","120"
"HTEL_HOLIDAYINN","96"
"INSR_CHUBB","191"
"DINN_YUU_UPTOYUU","2"
"TRVL_STDELUXE","3"
"FAHN_OTHER","19857"
"DINN_OTHER","20562"
"BEAU_HEALTHLAND","20"
"DRUG_PHARMAX","19"
"TRVL_SIXSTAR","7"
"TRVL_HIS","31"
"AIRL_MALAYSLAN","14"
"BEAU_ABSOLUTE_HEALTH","7"
"FUND_PHATRA","7"
"HSPT_SYNPHAET","9"
"HYPM_TESCO","3483"
"BEAU_OTHER","6246"
"DINN_AUBONPAIN","156"
"DINN_POMODORO_AMICI","3"
"HSHL_VERASU","64"
"FAHN_PRADA","45"
"HSPT_PHYATHAI2","6"
"RLST_SANSIRI","5"
"HSPT_PHYATHAI3","6"
"ELCT_DTAC","1377"
"INSR_BANGKOK LIFE","61"
"ATMB_COCKPIT","101"
"DINN_HONMONO","24"
"FAHN_BOYY","4"
"HSPT_TAKSON","2"
"DINN_ICHITAN_ZAABELI","1"
"FAHN_BATA","399"
"TRVL_OTHER","1735"
"DINN_COFFEEBEANSDAO","31"
"HYPM_CP","306"
"ELCT_AIS","1666"
"DINN_BURGERKING","108"
"DINN_DINTAIFUNG","18"
"AIRL_GARUDA","6"
"DPTM_DIANA","17"
"TRVL_GM","2"
"ATMB_TYREPLUS","11"
"ATMB_LEXUS","4"
"RLST_MAJOR","2"
"PTRL_SHELL","1283"
"INSR_CIGNA","41"
"HSPT_NAKORNTHON","11"
"BEAU_TRUEFITNESS","6"
"HSPT_SAMITIVEJTHONBURI","5"
"DINN_SANDP","3"
"DPTM_VOGUE","4"
"DPTM_LAMPANGSERI","3"
"CSMT_MISTINE","1"
"PTRL_BANGCHAK","1803"
"DINN_SIZZLER","136"
"STNR_OFFICEMATE","181"
"ELCT_JIB","266"
"CSMT_UNICITY","42"
"DINN_ZEN_AKA","47"
"ATMB_AUTOBOY","9"
"TRVL_MAJESTIC","3"
"DPTM_TOKYU","15"
"KIDS_MODELS_WH","1"
"DINN_YUU_UPTOU","1"
"HSPT_PATTAYAMEMORIAL","2"
"DPTM_ROBINSON","163"
"DINN_BUA","25"
"AIRL_NOKAIR","11627"
"DRUG_TSURUHA","47"
"BEAU_VIRGINACTIVE","1564"
"ONLN_LAZADA","13"
"INSR_ACS","1"
"HTEL_PLAZAATHENEE","3"
"DPTM_EMPORIUM","6"
"DINN_ZEN_GYU_GRILL","1"
"DINN_HUASENGHONG","80"
"FAHN_CHARLESKEITH","139"
"ATMB_OTHER","7411"
"HSHL_HOMEWORK","99"
"INSR_OTHER","10328"
"CSMT_GIFFARINE","202"
"JWLR_OPTICSQUARE","41"
"FUND_KSAM","18"
"INSR_KRUNGTHAIAXA","152"
"TRVL_TRAVELOKA","6"
"HSHL_POWERMALL","8"
"HSPT_SUKHUMVIT","5"
"PTRL_ESSO","744"
"HYPM_WATSON","1111"
"DINN_SUKISHI_SEOULGRILL","11"
"TRVL_EIGHTSEVEN","2"
"AIRL_LUFTHANSA","60"
"INSR_AASIA","2"
"HSPT_PHYATHAI1","6"
"FAHN_CCOO","117"
"HSPL_SF","237"
"DINN_OISHI_NIKUYA","20"
"HSPT_BANGPO","6"
"HSPT_PHYATHAISRIRACHA","5"
"HTEL_PENINSULA","7"
"AIRL_EVAAIR","126"
"HSPT_BANGNA","6"
"HSHL_GRANDHOMEMART","12"
"DPTM_NASASHOP","4"
"DINN_SAMYANSEAFOOD","6"
"RLST_LANDANDHOUSE","5"
"KIDS_HAPPY_CONSOLE","1"
"DINN_VIETCUISINE","25"
"HSPL_MAJOR","354"
"DPTM_TANGHUASENG","14"
"DINN_LEECAFE","19"
"ATMB_NISSAN","227"
"INSR_BUPA","27"
"JWLR_TAGHEUER","10"
"CSMT_HERBALLIFE","9"
"HSPT_RAMKHAMHAENG","10"
"DINN_YUU_REST","3"
"HSPT_RANGSIT","5"
"PTRL_PT","2041"
"DINN_MKSUKI","2001"
"INSR_NEWHAMPSHIRES","22"
"DINN_HOTPOT","294"
"DPTM_FAIRYPLAZA","3"
"ELCT_ISTUDIO","49"
"FAHN_ICC","24"
"DINN_CRG_YOSHINOYA","43"
"BEAU_WUTTISAK","165"
"AIRL_CATHAY","170"
"BEAU_WONGSADA","8"
"CRRN_HERTZ","36"
"HTEL_ACCOR_ALLSEASON","3"
"JWLR_REGENTDIAMOND","6"
"HSPT_STLOUIS","7"
"SPRT_ADIDAS","149"
"JWLR_OTHER","6589"
"DINN_TIMHOWAN","14"
"DINN_BANANALEAF","29"
"RLST_PROPERTY","31"
"AIRL_QANTAS","39"
"ATMB_MITSUBISHI","11"
"JWLR_PENDULUM","10"
"INSR_SILKSPAN","6"
"RLST_SUPALAI","17"
"STNR_B2S","256"
"CRRN_UBER","16962"
"INSR_THAILIFE","289"
"HSHL_BOONTHAVORN","93"
"DPTM_CHAISAENG","4"
"AIRL_KOREANAIR","50"
"DRUG_ZUELLIG","3"
"DPTM_ZEN","3"
"HSPT_BANGKOK9","8"
"PTRL_PTT","4584"
"DINN_SP","407"
"AIRL_EMIRATESAIR","389"
"TRVL_KSS","2"
"HSPT_SRIVICHAI","2"
"CSMT_AMWAY","182"
"DINN_ZEN_REST","101"
"DINN_LAEMCHAROEN","54"
"FAHN_DAPPER","41"
"AIRL_ETIHADAIR","95"
"TRVL_NOOMSAO","1"
"HSHL_CHICREP","17"
"DRUG_PETCHARAT","8"
"ELCT_FUTUREAV","7"
"JWLR_AURORA","196"
"DRUG_OTHER","1977"
"DINN_SUSHIHANA","31"
"CSMT_UNILEVER","54"
"FAHN_KTOPTIC","5"
"FAHN_OCC","9"
"DINN_OISHI_DELIVERY","4"
"ELCT_ITCITY","166"
"FAHN_GUESS","30"
"HSHL_IKEA","24"
"DINN_JEFFERSTEK","151"
"DINN_PIZZAHUT","157"
"HTEL_PRINCE","19"
"INSR_SOUTHEASTLIFE","28"
"HSPT_SAMITIVEJ","12"
"DINN_13_COIN","12"
"HYPM_HOMEFRESHMART","43"
"FAHN_TOPCHAROEN","1045"
"CRRN_WORLDCLASS","42"
"HTEL_EVASON","2"
"DRUG_PANDF","124"
"FUND_OTHER","7"
"BEAU_PUEWDEE","18"
"AIRL_CHINA","87"
"HSPT_PRARAM9","8"
"FUND_ABERDEEN","1"
"FAHN_FNFACTORY","22"
"HYPM_TOPS","473"
"CRRN_OTHER","633"
"BEAU_PAN","117"
"FAHN_HISHER","90"
"CRRN_SIXT","24"
"ELCT_IMOBILE","62"
"ATMB_MILLENNIUM","21"
"HSPT_SIRIRAJ","20"
"HSPT_RATTANATIBETH","3"
"DPTM_FRIDAY","12"
"KIDS_PHANTOM","1"
"HSPT_BAANBOUNG","5"
"DINN_SWENSENS","578"
"AIRL_SINGAPOREAIR","215"
"JWLR_TIMEDECO","16"
"RLST_PRUKSA","22"
"BEAU_SIAMLASER","31"
"RLST_GRANDUNITY","4"
"PTRL_OTHER","3275"
"DINN_SUKISHI_BUFFET","46"
"HSHL_AMORN","133"
"ELCT_JAYMART","269"
"FAHN_JASPAL","144"
"DINN_BANKLANGNAM","8"
"INSR_PRUDENTIAL","94"
"AIRL_LION","494"
"TRVL_ONEWORLD","2"
"HTEL_BANYANTREE","8"
"UTLT_COUNTER","1"
"HSHL_HOMEPRO","337"
"DUTY_OTHER","683"
"HSPT_THONBURI","33"
"DINN_OISHI_GROUP","16"
"AIRL_TIGER","237"
"CSMT_JEUNESSE","6"
"HSPT_RAMATHIBODI","7"
"JWLR_HUASENGHENG","10"
"HSPT_KRUNGSIAM","5"
"FAHN_HERMES","2"
"TLCM_DTAC","291"
"HTEL_OTHER","9169"
"FAHN_ZARA","298"
"HSHL_OTHER","7733"
"FAHN_AIIZ","176"
"HSHL_SIAMGLOBAL","200"
"HTEL_ACCOR_MERCURE","62"
"HTEL_ASARA","3"
"HSPT_MISSION","2"
"HTEL_JOMTIEN","2"
"FAHN_UNIQLO","228"
"DINN_KUMPOON","14"
"INSR_TOKIOMARINE","1034"
"DINN_TOHKAI","46"
"JWLR_EYELAB","76"
"DPTM_INFINITE","7"
"HSPT_VICHAIYUT","10"
"JWLR_AUDEMARS","2"
"STNR_LOFT","12"
"HYPM_MAXVALUE","206"
"HSHL_SB","50"
"INSR_AIA","15070"
"HSHL_DOHOME","47"
"KIDS_OTHER","1523"
"JWLR_JUBILEE","25"
"ONLN_11STREET","10"
"ONLN_ALIEXPRESS","27"
"DINN_CHOKCHAI","10"
"DINN_SPAGHETTI","8"
"HTEL_ACCOR_NOVOTEL","97"
"DINN_YAMAGOYA","16"
"HSPT_CHULARAT","16"
"ATMB_BMW","7"
"HSPT_CHAOPHYA","6"
"CSMT_JAELENG","4"
"HSHL_OMAZZ","5"
"DINN_FUJI","452"
"DPTM_CENTRAL","164"
"CSMT_EVEANDBOY","18"
"DINN_ICHITAN_IZAKAYA","1"
"AIRL_UNITEDAIR","94"
"TRVL_EXPEDIA","47"
"DINN_ZEN_MORIMORI","2"
"HTEL_ALEETA","7"
"UTLT_MWA","1"
"ELCT_OTHER","8085"
"ELCT_HARDWAREHOUSE","17"
"JWLR_SWAROVSKI","12"
"FAHN_COACH","117"
"HSPT_YANHEE","13"
"DPTM_SERIDEPT","3"
"DPTM_TAVEEKIJ","2"
"FAHN_WONDERFUL","1"
"HTEL_SHERATON","55"
"AIRL_BANGKOKAIR","1769"
"SLMM_OTHER","84"
"DINN_OISHI_KAKASHI","7"
"JWLR_PRIMAGOLD","22"
"SPRT_THENORTHFACE","22"
"HTEL_RENAISSANCE","14"
