"MERCHANT_GROUP","COUNT(*)"
"DINN_BOONTONGKEE","12"
"AIRL_THAIAIRWAYS","132"
"HSPT_BANGKOK","105"
"AIRL_ANAJAPAN","71"
"FAHN_LACOSTE","44"
"FAHN_KIPLING","33"
"DINN_OISHI_GRAND","3"
"DINN_OISHI_SHABUSHI","130"
"INSR_MANULIFE","504"
"TLCM_OTHER","772"
"CSMT_SEPHORA","78"
"DINN_CRG_PEPPERLUNCH","56"
"DPTM_FAIRYLAND","4"
"DINN_DAIDOMON","9"
"CRRN_GRAB","6"
"HYPM_FOODLAND","54"
"DINN_BONCHON","70"
"BEAU_NITIPOL","184"
"DINN_SAVOEY","28"
"HTEL_DUSIT","38"
"DINN_TALINGPLING","16"
"HTEL_VERANDA","19"
"HSHL_MODERNFORM","14"
"INSR_SCB","42"
"DPTM_CHUMPHONOCEAN","11"
"AIRL_QATARAIR","45"
"DINN_BARBQPLAZA","252"
"DPTM_KLANGPLAZA","12"
"INSR_SYNMUNKONG","195"
"ELCT_POWERBUY","166"
"HTEL_ACCOR_PULLMAN","30"
"PETS_PKPETMART","3"
"UTLT_MEA","3"
"ONLN_GOOGLE","3088"
"SPRT_DECATHLON","36"
"CSMT_NUSKIN","40"
"AIRL_JETSTARAIR","336"
"DINN_KIMJU","23"
"HTEL_HARDROCK","6"
"INSR_THAIVIVAT","25"
"AIRL_JAPANAIR","80"
"ATMB_CHEVROLET","16"
"AIRL_CANADA","24"
"DPTM_PARAGON","6"
"HSHL_INDEX","105"
"HYPM_BOOTS","633"
"PETS_MALETKHAOPET","6"
"HSPT_BANGPAKOK","18"
"INSR_ALIFE","4"
"DINN_TEXASSUKI","6"
"SPRT_OTHER","1562"
"ELCT_BANANAIT","109"
"PETS_ROYALCANIN","3"
"INSR_SCILIFE","519"
"DINN_SAKURA","17"
"DINN_NARAIPIZZARIA","34"
"CRRN_KRUNGTHAI","4"
"DINN_KALAPRAPRUEK","3"
"KIDS_PHUKET_SANUK","2"
"DINN_MCDONALD","371"
"DINN_THEPIZZA","338"
"INSR_BANGKOKINSURANCE","79"
"DINN_KFC","7"
"DINN_POMODORO_GUSTOSO","6"
"RLST_AP","15"
"HSPT_VIBHARAM","17"
"AIRL_AIRASIA","10534"
"HTEL_CENTARA","76"
"DINN_SUSHIMASA","6"
"HSPT_BANGKOKCHRISTIAN","11"
"BEAU_APEX","34"
"DINN_ICHITAN_MELTME","10"
"AIRL_PHILIPPINE","14"
"TRVL_AGODA","8"
"TRVL_COSMOS","1"
"HSPT_VIBHAVADI","10"
"ELCT_CAMERAWORLD","68"
"HSPT_LADPRAO","6"
"AIRL_FRANCE","48"
"DINN_FOURSEASONS","12"
"TRVL_CHAIRAK","11"
"FAHN_MANGO","81"
"AIRL_DUTCH","68"
"DRUG_ICAREHEALTH","23"
"INSR_DHIPAYA","55"
"FAHN_BOSSINI","52"
"DINN_SANSAB","16"
"TRVL_WONDERFUL","7"
"ELCT_PHOTOHUT","3"
"DINN_STARBUCKS","954"
"HYPM_OTHER","5165"
"AIRL_OTHER","1798"
"HTEL_HYATT","39"
"DINN_CRG_OOTOYA","109"
"INSR_VIRIYAH","122"
"CSMT_ORIENTAL","680"
"ELCT_BIGCAMERA","207"
"AIRL_DELTA","62"
"CRRN_AVIS","80"
"INSR_TESCO","101"
"HSHL_HOMEHUB","22"
"CSMT_BODYSHOP","15"
"ELCT_APPLE","1"
"TRVL_DISCOVERY","1"
"ONLN_OMISE","103"
"HSPT_NONTHAVEJ","9"
"HYPM_GOURMET","22"
"TLCM_3BB","845"
"HTEL_AIRBNB","374"
"FAHN_ZALORA","3"
"FAHN_LOUISVUITTON","9"
"HTEL_LERMERIDIEN","16"
"HYPM_GOLDENPLACE","24"
"CRRN_THAIRENT","26"
"HYPM_MAKRO","115"
"HSPT_KLUAYNAMTHAI","11"
"JWLR_PANDORA","38"
"DPTM_PARADISE","3"
"HSPT_BUMRUNGRAD","4"
"DPTM_OTHER","4028"
"OTHR_OTHER","19933"
"ATMB_MAZDA","78"
"DINN_HUAPLACHONG","47"
"KIDS_TOYS_STATION","5"
"HSPT_SAMITIVEJSRIRACHA","7"
"HSPT_HUACHIEW","8"
"HSPT_SIKARIN","6"
"DINN_ICHITAN_TOKIYA","3"
"ONLN_FACEBOOK","11506"
"TLCM_TOT","558"
"HSPL_MRT","36"
"DPTM_ISETON","25"
"SLMM_SLIMUP","24"
"DINN_CRG_CHABUTON","47"
"HYPM_711","949"
"PETS_OTHER","1521"
"HSPT_SAMITIVEJSRINAKARIN","6"
"INSR_AIG","25"
"INSR_THAIOCEAN","59"
"HTEL_HILTON","77"
"BEAU_ROMRAWIN","37"
"HSPT_CHIANGMAIRAM","8"
"DINN_OISHI_EXPRESS","4"
"DPTM_KANOCKAN","6"
"ONLN_BLUEPAY","3"
"ATMB_AAS","3"
"DINN_DAKGALBI","26"
"HSPT_VEJTHANI","7"
"BEAU_PORNKASEM","102"
"CSMT_KARMART","32"
"DINN_SCOOZI","45"
"BEAU_PRUKSA","50"
"INSR_THAIINSURANCE","407"
"HTEL_ACCOR_SOFITEL","26"
"ATMB_SUZUKI","47"
"HSPT_SIKARINHATYAI","1"
"ONLN_PAYPAL","5426"
"INSR_TQM","12"
"CRRN_BUDGET","6"
"PETS_THONGLORPET","38"
"BEAU_SPARSHA","44"
"HSPT_CHULA","17"
"INSR_ASIA","17"
"HSHL_CHANINTR","2"
"ONLN_WEMALL","3"
"DINN_OISHI_KAZOKUTEI","1"
"TRVL_CHEAPTICKET","2"
"TLCM_TTANDT","1"
"HSPL_BTS","106"
"HSPT_PAOLO","23"
"CSMT_CUTEPRESS","310"
"HSPT_THAINAKARIN","7"
"HSHL_MEGAHOME","30"
"INSR_MUANGTHAILIFE","3312"
"RLST_ANANDA","20"
"HSHL_THAIWATSADU","3"
"FUND_MFC","1"
"KIDS_KIDZUKA","3"
"TRVL_SBA","2"
"SLMM_MARIEFRANCE","2"
"HSPL_THAITICKET","14"
"DINN_SEEFAH","66"
"HSHL_HAFELE","7"
"DINN_CRG_TERRACE","43"
"DPTM_SERMTHAICOMPLEX","3"
"HSPL_OTHER","1181"
"CSMT_OTHER","3286"
"DINN_KASAJAPANESE","41"
"ATMB_BQUIK","317"
"HTEL_MARIOTT","94"
"INSR_AACP","676"
"INSR_FWD","76"
"BEAU_KLINIQUE","45"
"DINN_BLACKCANYON","173"
"DINN_DEANDELUCA","22"
"DPTM_KADKAM","2"
"FAHN_CHANEL","3"
"SPRT_FBT","14"
"FAHN_OPTICAL88","72"
"DINN_YUMSAAP","97"
"PTRL_CALTEX","10"
"JWLR_MODERNOPTICAL","21"
"KIDS_NADZ_PROJECT","4"
"ATMB_TOYOTA","840"
"SPRT_SUPERSPORT","380"
"INSR_GENERALI","56"
"SPRT_SPORTWORLD","45"
"ATMB_HONDA","537"
"RLST_OTHER","1135"
"ELCT_ADVICE","129"
"DINN_CRG_COLDSTONE","41"
"DINN_OISHI_RAMEN","12"
"DINN_HONGMIN","21"
"KIDS_KIDDO_PACIFIC","4"
"DINN_COCO_ICHIBAN","7"
"FAHN_HANDM","141"
"TLCM_CAT","131"
"DINN_COCA","42"
"HSPT_KASEMRAD","27"
"DINN_SUKISHI_BBQ","88"
"KIDS_TOYRUS","29"
"HSHL_CPAC","7"
"INSR_THANACHARTLIFE","12"
"DPTM_EMQUARTIER","8"
"BEAU_FITNESSFIRST","192"
"ATMB_ISUZU","260"
"DINN_LITTLEHOME","18"
"JWLR_CITYCHAIN","33"
"HSPT_BNH","10"
"KIDS_ROCKINGKIDS","3"
"HSPT_OTHER","896"
"DPTM_THEMALL","47"
"ATMB_FORD","40"
"HSPT_BANGMOD","7"
"HTEL_SIAMKEMPINSKI","2"
"CRRN_RENTALCARS","8"
"TRVL_CHARAL","8"
"DPTM_SERMTHAIPLAZA","2"
"FAHN_LEVI","82"
"DINN_YAYOI","162"
"INSR_SIAMSAMSUNG","15"
"TLCM_TRUE","16914"
"AIRL_THAISMILES","354"
"INSR_MUANGTHAIINS","18"
"BEAU_RAJDHEVEE","109"
"HTEL_INTERCONTINENTAL","19"
"HTEL_ACCOR_IBIS","80"
"PETS_DOCTORNOK","4"
"FUND_LANDNHOUSE","1"
"ATMB_BRIDGESTONE","185"
"DRUG_GNC","53"
"HSPT_PIYAVATE","7"
"JWLR_MAETHONGSUK","10"
"AIRL_BRITISHAIR","56"
"ONLN_ITUNE","5"
"AIRL_NEWZEALAND","1"
"ELCT_TRUE","981"
"DUTY_KINGPOWER","99"
"DINN_NITTAYAKAI","44"
"CSMT_BEAUTYBUFFET","302"
"DRUG_FASCINO","128"
"DINN_GOODVIEW","14"
"HTEL_ANANTARA","33"
"INSR_CHAOPRAYA","5"
"RLST_NARAI","5"
"EDUC_OTHER","2358"
"HYPM_VILLAMARKET","91"
"DINN_ZEN_ON_TABLE","39"
"DINN_SANTAFESTEAK","212"
"JWLR_BETTERVISION","251"
"FAHN_LYN","213"
"HTEL_AMARI","30"
"AIRL_AMERICAN","57"
"KIDS_ALPHAKID","4"
"DINN_YUU_JANG","3"
"ONLN_AIRPAY","5"
"TLCM_AIS","19"
"BEAU_WEFITNESS","422"
"RLST_LPN","23"
"AIRL_SWISSAIR","51"
"HTEL_LIMACOCO","3"
"TRVL_BOOKING","13"
"TRVL_QUALITY","11"
"HYPM_BIGC","1090"
"INSR_CHUBB","169"
"HTEL_HOLIDAYINN","96"
"FAHN_CHAPS","100"
"DINN_YUU_UPTOYUU","3"
"TRVL_STDELUXE","5"
"DINN_OTHER","19824"
"FAHN_OTHER","19346"
"DRUG_PHARMAX","19"
"TRVL_SIXSTAR","4"
"BEAU_HEALTHLAND","20"
"TRVL_HIS","37"
"AIRL_MALAYSLAN","17"
"FUND_PHATRA","8"
"BEAU_ABSOLUTE_HEALTH","9"
"HYPM_TESCO","3393"
"BEAU_OTHER","6292"
"HSPT_SYNPHAET","11"
"DINN_AUBONPAIN","152"
"DINN_POMODORO_AMICI","3"
"HSHL_VERASU","60"
"RLST_SANSIRI","6"
"HSPT_PHYATHAI2","6"
"HSPT_PHYATHAI3","6"
"FAHN_PRADA","37"
"ELCT_DTAC","1349"
"INSR_BANGKOK LIFE","78"
"ATMB_COCKPIT","106"
"DINN_HONMONO","23"
"HSPT_TAKSON","2"
"FAHN_BOYY","2"
"DINN_ICHITAN_ZAABELI","1"
"ELCT_AIS","1669"
"TRVL_OTHER","1831"
"HYPM_CP","287"
"FAHN_BATA","404"
"ATMB_LEXUS","5"
"DINN_COFFEEBEANSDAO","27"
"DPTM_DIANA","15"
"DINN_BURGERKING","107"
"AIRL_GARUDA","7"
"ATMB_TYREPLUS","9"
"DINN_DINTAIFUNG","16"
"TRVL_GM","4"
"RLST_MAJOR","2"
"PTRL_SHELL","1274"
"INSR_CIGNA","43"
"HSPT_NAKORNTHON","11"
"BEAU_TRUEFITNESS","6"
"HSPT_SAMITIVEJTHONBURI","5"
"DPTM_LAMPANGSERI","3"
"DINN_SANDP","2"
"DPTM_VOGUE","4"
"CSMT_MISTINE","1"
"DINN_SIZZLER","135"
"PTRL_BANGCHAK","1748"
"STNR_OFFICEMATE","173"
"ELCT_JIB","272"
"DINN_ZEN_AKA","40"
"CSMT_UNICITY","46"
"TRVL_MAJESTIC","2"
"DPTM_TOKYU","22"
"ATMB_AUTOBOY","11"
"HSPT_PATTAYAMEMORIAL","3"
"KIDS_MODELS_WH","1"
"DINN_YUU_UPTOU","1"
"DPTM_ROBINSON","163"
"DRUG_TSURUHA","45"
"AIRL_NOKAIR","10151"
"BEAU_VIRGINACTIVE","1714"
"DPTM_EMPORIUM","8"
"DINN_BUA","21"
"ONLN_LAZADA","12"
"HTEL_PLAZAATHENEE","2"
"INSR_ACS","1"
"DINN_ZEN_GYU_GRILL","1"
"CSMT_GIFFARINE","199"
"HSHL_HOMEWORK","98"
"INSR_OTHER","9903"
"ATMB_OTHER","7780"
"FAHN_CHARLESKEITH","146"
"FUND_KSAM","19"
"DINN_HUASENGHONG","82"
"HSPT_SUKHUMVIT","5"
"INSR_KRUNGTHAIAXA","183"
"JWLR_OPTICSQUARE","35"
"TRVL_TRAVELOKA","6"
"HSHL_POWERMALL","7"
"PTRL_ESSO","745"
"HYPM_WATSON","1146"
"DINN_SUKISHI_SEOULGRILL","12"
"INSR_AASIA","4"
"AIRL_LUFTHANSA","79"
"TRVL_EIGHTSEVEN","2"
"HSPT_PHYATHAI1","6"
"HSPT_PHYATHAISRIRACHA","5"
"HSPL_SF","234"
"AIRL_EVAAIR","133"
"HTEL_PENINSULA","10"
"FAHN_CCOO","103"
"DINN_OISHI_NIKUYA","19"
"HSPT_BANGPO","7"
"HSPT_BANGNA","6"
"DPTM_NASASHOP","5"
"KIDS_HAPPY_CONSOLE","2"
"DINN_SAMYANSEAFOOD","5"
"HSHL_GRANDHOMEMART","11"
"RLST_LANDANDHOUSE","5"
"HSPL_MAJOR","360"
"DPTM_TANGHUASENG","14"
"ATMB_NISSAN","227"
"DINN_VIETCUISINE","25"
"DINN_LEECAFE","18"
"CSMT_HERBALLIFE","7"
"HSPT_RAMKHAMHAENG","10"
"INSR_BUPA","27"
"JWLR_TAGHEUER","9"
"HSPT_RANGSIT","5"
"DINN_YUU_REST","2"
"DINN_MKSUKI","1636"
"DINN_HOTPOT","311"
"PTRL_PT","2041"
"FAHN_ICC","34"
"INSR_NEWHAMPSHIRES","22"
"DPTM_FAIRYPLAZA","2"
"DINN_CRG_YOSHINOYA","45"
"BEAU_WUTTISAK","171"
"ELCT_ISTUDIO","50"
"CRRN_HERTZ","28"
"AIRL_CATHAY","194"
"HTEL_ACCOR_ALLSEASON","3"
"BEAU_WONGSADA","11"
"HSPT_STLOUIS","7"
"JWLR_REGENTDIAMOND","4"
"JWLR_OTHER","6532"
"SPRT_ADIDAS","144"
"RLST_PROPERTY","41"
"INSR_SILKSPAN","5"
"DINN_BANANALEAF","26"
"DINN_TIMHOWAN","15"
"AIRL_QANTAS","32"
"ATMB_MITSUBISHI","14"
"RLST_SUPALAI","18"
"JWLR_PENDULUM","9"
"CRRN_UBER","16402"
"STNR_B2S","253"
"HSHL_BOONTHAVORN","88"
"INSR_THAILIFE","296"
"DPTM_ZEN","3"
"AIRL_KOREANAIR","55"
"DPTM_CHAISAENG","2"
"DRUG_ZUELLIG","7"
"HSPT_BANGKOK9","7"
"PTRL_PTT","4541"
"DINN_SP","381"
"AIRL_EMIRATESAIR","216"
"TRVL_KSS","3"
"HSPT_SRIVICHAI","3"
"DINN_ZEN_REST","106"
"CSMT_AMWAY","178"
"DINN_LAEMCHAROEN","51"
"FAHN_DAPPER","39"
"HSHL_CHICREP","16"
"AIRL_ETIHADAIR","79"
"PETS_DDOGDAILY","1"
"DRUG_PETCHARAT","9"
"ELCT_FUTUREAV","4"
"TRVL_NOOMSAO","1"
"DRUG_OTHER","2064"
"JWLR_AURORA","178"
"DINN_SUSHIHANA","35"
"CSMT_UNILEVER","60"
"FAHN_KTOPTIC","10"
"FAHN_OCC","12"
"DINN_OISHI_DELIVERY","5"
"TRVL_WORLDSURPRISE","1"
"ELCT_ITCITY","174"
"FAHN_GUESS","20"
"HSHL_IKEA","28"
"INSR_SOUTHEASTLIFE","23"
"DINN_JEFFERSTEK","144"
"DINN_PIZZAHUT","138"
"HTEL_PRINCE","14"
"HSPT_SAMITIVEJ","10"
"DINN_13_COIN","17"
"FAHN_TOPCHAROEN","1066"
"HYPM_HOMEFRESHMART","38"
"HSPT_PRARAM9","8"
"CRRN_WORLDCLASS","44"
"AIRL_CHINA","71"
"DRUG_PANDF","121"
"FUND_OTHER","9"
"BEAU_PUEWDEE","20"
"HTEL_EVASON","3"
"FUND_ABERDEEN","1"
"HYPM_TOPS","471"
"CRRN_OTHER","710"
"BEAU_PAN","119"
"FAHN_HISHER","85"
"ELCT_IMOBILE","60"
"FAHN_FNFACTORY","20"
"CRRN_SIXT","17"
"ATMB_MILLENNIUM","22"
"DPTM_FRIDAY","9"
"HSPT_SIRIRAJ","18"
"HSPT_RATTANATIBETH","3"
"KIDS_PHANTOM","2"
"HSPT_BAANBOUNG","3"
"DINN_SWENSENS","544"
"AIRL_SINGAPOREAIR","123"
"RLST_PRUKSA","27"
"BEAU_SIAMLASER","34"
"RLST_GRANDUNITY","6"
"JWLR_TIMEDECO","22"
"PTRL_OTHER","3153"
"FAHN_JASPAL","153"
"DINN_SUKISHI_BUFFET","46"
"HSHL_AMORN","127"
"INSR_PRUDENTIAL","92"
"ELCT_JAYMART","216"
"DINN_BANKLANGNAM","8"
"HTEL_BANYANTREE","8"
"AIRL_LION","498"
"TRVL_ONEWORLD","3"
"UTLT_COUNTER","1"
"HSHL_HOMEPRO","337"
"HSPT_RAMATHIBODI","7"
"DINN_OISHI_GROUP","15"
"HSPT_THONBURI","33"
"DUTY_OTHER","569"
"AIRL_TIGER","265"
"JWLR_HUASENGHENG","13"
"CSMT_JEUNESSE","8"
"HSPT_KRUNGSIAM","5"
"FAHN_HERMES","2"
"HSHL_OTHER","7600"
"FAHN_ZARA","240"
"HTEL_OTHER","9485"
"TLCM_DTAC","308"
"FAHN_AIIZ","165"
"HSHL_SIAMGLOBAL","207"
"HTEL_ACCOR_MERCURE","70"
"HSPT_MISSION","3"
"HTEL_JOMTIEN","3"
"HTEL_ASARA","2"
"INSR_TOKIOMARINE","1695"
"FAHN_UNIQLO","209"
"DINN_KUMPOON","14"
"DINN_TOHKAI","43"
"JWLR_EYELAB","70"
"HSPT_VICHAIYUT","8"
"DPTM_INFINITE","8"
"STNR_LOFT","12"
"INSR_AIA","17487"
"HYPM_MAXVALUE","213"
"KIDS_OTHER","1574"
"HSHL_DOHOME","42"
"HSHL_SB","48"
"ONLN_ALIEXPRESS","30"
"JWLR_JUBILEE","32"
"ONLN_11STREET","9"
"DINN_YAMAGOYA","17"
"DINN_SPAGHETTI","7"
"HTEL_ACCOR_NOVOTEL","84"
"DINN_CHOKCHAI","12"
"HSPT_CHULARAT","15"
"HSPT_CHAOPHYA","6"
"HSHL_OMAZZ","5"
"ATMB_BMW","7"
"CSMT_JAELENG","4"
"DINN_FUJI","452"
"CSMT_EVEANDBOY","19"
"DPTM_CENTRAL","162"
"AIRL_UNITEDAIR","87"
"TRVL_EXPEDIA","490"
"HTEL_ALEETA","4"
"DINN_ZEN_MORIMORI","1"
"UTLT_MWA","1"
"ELCT_OTHER","8127"
"HSPT_YANHEE","13"
"FAHN_COACH","107"
"ELCT_HARDWAREHOUSE","16"
"DPTM_TAVEEKIJ","3"
"JWLR_SWAROVSKI","14"
"FAHN_WONDERFUL","2"
"DPTM_SERIDEPT","2"
"SLMM_OTHER","83"
"AIRL_BANGKOKAIR","1367"
"SPRT_THENORTHFACE","15"
"HTEL_SHERATON","53"
"DINN_OISHI_KAKASHI","6"
"JWLR_PRIMAGOLD","32"
"HTEL_RENAISSANCE","11"
