"MERCHANT_GROUP","COUNT(*)"
"HSPT_BANGKOK","103"
"DINN_BOONTONGKEE","16"
"AIRL_THAIAIRWAYS","144"
"FAHN_KIPLING","56"
"FAHN_LACOSTE","67"
"AIRL_ANAJAPAN","121"
"DINN_OISHI_GRAND","1"
"CSMT_SEPHORA","103"
"DINN_OISHI_SHABUSHI","129"
"DINN_CRG_PEPPERLUNCH","57"
"TLCM_OTHER","920"
"INSR_MANULIFE","407"
"DPTM_FAIRYLAND","5"
"CRRN_GRAB","8"
"DINN_DAIDOMON","9"
"HYPM_FOODLAND","60"
"DINN_SAVOEY","35"
"HTEL_DUSIT","47"
"DINN_TALINGPLING","14"
"DINN_BONCHON","75"
"BEAU_NITIPOL","197"
"HSHL_MODERNFORM","19"
"HTEL_VERANDA","22"
"INSR_SCB","55"
"DPTM_CHUMPHONOCEAN","13"
"ELCT_POWERBUY","172"
"DINN_BARBQPLAZA","452"
"HTEL_ACCOR_PULLMAN","33"
"INSR_SYNMUNKONG","195"
"DPTM_KLANGPLAZA","15"
"AIRL_QATARAIR","96"
"PETS_PKPETMART","3"
"UTLT_MEA","3"
"ONLN_GOOGLE","3530"
"CSMT_NUSKIN","41"
"SPRT_DECATHLON","26"
"AIRL_JETSTARAIR","222"
"DINN_KIMJU","23"
"HTEL_HARDROCK","3"
"AIRL_JAPANAIR","65"
"AIRL_CANADA","23"
"ATMB_CHEVROLET","17"
"DPTM_PARAGON","9"
"INSR_THAIVIVAT","20"
"HSHL_INDEX","103"
"PETS_MALETKHAOPET","5"
"HYPM_BOOTS","646"
"HSPT_BANGPAKOK","14"
"DINN_TEXASSUKI","7"
"INSR_ALIFE","4"
"SPRT_OTHER","1769"
"ELCT_BANANAIT","73"
"DINN_NARAIPIZZARIA","41"
"INSR_SCILIFE","456"
"DINN_SAKURA","18"
"PETS_ROYALCANIN","3"
"DINN_KALAPRAPRUEK","2"
"KIDS_PHUKET_SANUK","1"
"CRRN_KRUNGTHAI","3"
"DINN_THEPIZZA","336"
"DINN_POMODORO_GUSTOSO","6"
"DINN_KFC","7"
"DINN_MCDONALD","426"
"INSR_BANGKOKINSURANCE","82"
"RLST_AP","14"
"HSPT_VIBHARAM","20"
"AIRL_AIRASIA","13463"
"DINN_SUSHIMASA","5"
"HTEL_CENTARA","87"
"HSPT_BANGKOKCHRISTIAN","9"
"BEAU_APEX","25"
"DINN_ICHITAN_MELTME","10"
"TRVL_AGODA","11"
"TRVL_COSMOS","1"
"AIRL_PHILIPPINE","17"
"HSPT_VIBHAVADI","10"
"DINN_FOURSEASONS","16"
"ELCT_CAMERAWORLD","54"
"HSPT_LADPRAO","6"
"AIRL_FRANCE","59"
"INSR_DHIPAYA","66"
"DRUG_ICAREHEALTH","25"
"FAHN_MANGO","123"
"FAHN_BOSSINI","49"
"TRVL_CHAIRAK","11"
"DINN_SANSAB","16"
"AIRL_DUTCH","86"
"TRVL_WONDERFUL","6"
"HYPM_OTHER","6024"
"DINN_STARBUCKS","1065"
"DINN_CRG_OOTOYA","109"
"INSR_VIRIYAH","98"
"CSMT_ORIENTAL","702"
"HTEL_HYATT","54"
"AIRL_OTHER","2329"
"CRRN_AVIS","117"
"ELCT_BIGCAMERA","194"
"AIRL_DELTA","88"
"CSMT_BODYSHOP","15"
"HSHL_HOMEHUB","20"
"INSR_TESCO","120"
"ELCT_APPLE","1"
"TLCM_3BB","856"
"HTEL_AIRBNB","407"
"ONLN_OMISE","126"
"HSPT_NONTHAVEJ","9"
"HYPM_GOURMET","25"
"FAHN_ZALORA","1"
"FAHN_LOUISVUITTON","9"
"HYPM_GOLDENPLACE","24"
"CRRN_THAIRENT","36"
"HTEL_LERMERIDIEN","26"
"JWLR_PANDORA","60"
"HSPT_KLUAYNAMTHAI","8"
"DPTM_PARADISE","3"
"HSPT_BUMRUNGRAD","3"
"OTHR_OTHER","20814"
"DPTM_OTHER","4429"
"ATMB_MAZDA","97"
"KIDS_TOYS_STATION","4"
"HSPT_SAMITIVEJSRIRACHA","6"
"DINN_HUAPLACHONG","24"
"HSPT_HUACHIEW","6"
"HSPT_SIKARIN","6"
"DINN_ICHITAN_TOKIYA","2"
"ONLN_FACEBOOK","11897"
"TLCM_TOT","606"
"DPTM_ISETON","31"
"SLMM_SLIMUP","36"
"HSPL_MRT","42"
"HSHL_KONCEPT","1"
"PETS_OTHER","1777"
"HSPT_SAMITIVEJSRINAKARIN","6"
"DINN_CRG_CHABUTON","43"
"HYPM_711","2333"
"HSPT_CHIANGMAIRAM","7"
"BEAU_ROMRAWIN","47"
"INSR_THAIOCEAN","58"
"INSR_AIG","26"
"DINN_OISHI_EXPRESS","6"
"HTEL_HILTON","88"
"DPTM_KANOCKAN","7"
"ONLN_BLUEPAY","3"
"ATMB_AAS","2"
"BEAU_PRUKSA","59"
"INSR_THAIINSURANCE","406"
"HSPT_VEJTHANI","6"
"BEAU_PORNKASEM","97"
"ATMB_SUZUKI","46"
"DINN_DAKGALBI","28"
"DINN_SCOOZI","43"
"CSMT_KARMART","27"
"HTEL_ACCOR_SOFITEL","34"
"HSPT_SIKARINHATYAI","1"
"ONLN_PAYPAL","5565"
"BEAU_SPARSHA","42"
"INSR_TQM","12"
"PETS_THONGLORPET","39"
"INSR_ASIA","19"
"CRRN_BUDGET","12"
"HSHL_CHANINTR","2"
"HSPT_CHULA","14"
"ONLN_WEMALL","3"
"TRVL_FOREVER","1"
"TRVL_CHEAPTICKET","2"
"HSPL_BTS","108"
"HSPT_PAOLO","25"
"CSMT_CUTEPRESS","281"
"HSPT_THAINAKARIN","7"
"RLST_ANANDA","16"
"INSR_MUANGTHAILIFE","3422"
"HSHL_MEGAHOME","30"
"KIDS_KIDZUKA","3"
"FUND_MFC","1"
"HSHL_THAIWATSADU","3"
"DINN_SEEFAH","93"
"HSPL_THAITICKET","14"
"HSHL_HAFELE","9"
"DINN_CRG_TERRACE","41"
"DPTM_SERMTHAICOMPLEX","4"
"SLMM_MARIEFRANCE","1"
"CSMT_OTHER","3570"
"HSPL_OTHER","2231"
"HTEL_MARIOTT","111"
"INSR_FWD","77"
"DINN_BLACKCANYON","200"
"DINN_KASAJAPANESE","40"
"INSR_AACP","644"
"ATMB_BQUIK","361"
"BEAU_KLINIQUE","42"
"DINN_DEANDELUCA","22"
"DPTM_KADKAM","2"
"FAHN_CHANEL","4"
"SPRT_FBT","13"
"DINN_YUMSAAP","97"
"FAHN_OPTICAL88","69"
"JWLR_MODERNOPTICAL","19"
"PTRL_CALTEX","14"
"KIDS_NADZ_PROJECT","4"
"ATMB_HONDA","586"
"SPRT_SUPERSPORT","385"
"SPRT_SPORTWORLD","50"
"ATMB_TOYOTA","881"
"RLST_OTHER","1391"
"ELCT_ADVICE","183"
"INSR_GENERALI","65"
"DINN_HONGMIN","21"
"DINN_OISHI_RAMEN","11"
"DINN_CRG_COLDSTONE","32"
"DINN_COCO_ICHIBAN","14"
"KIDS_KIDDO_PACIFIC","5"
"FAHN_HANDM","237"
"DINN_SUKISHI_BBQ","79"
"TLCM_CAT","141"
"DINN_COCA","58"
"KIDS_TOYRUS","37"
"HSPT_KASEMRAD","27"
"HSHL_CPAC","6"
"INSR_THANACHARTLIFE","14"
"DPTM_EMQUARTIER","8"
"BEAU_FITNESSFIRST","168"
"ATMB_ISUZU","277"
"DINN_LITTLEHOME","15"
"HSPT_BNH","10"
"JWLR_CITYCHAIN","30"
"KIDS_ROCKINGKIDS","1"
"HSPT_OTHER","963"
"DPTM_THEMALL","50"
"ATMB_FORD","39"
"HSPT_BANGMOD","5"
"HTEL_SIAMKEMPINSKI","3"
"CRRN_RENTALCARS","9"
"TRVL_CHARAL","8"
"DPTM_SERMTHAIPLAZA","2"
"INSR_SIAMSAMSUNG","22"
"DINN_YAYOI","167"
"TLCM_TRUE","16692"
"INSR_MUANGTHAIINS","16"
"BEAU_RAJDHEVEE","109"
"FAHN_LEVI","86"
"HTEL_INTERCONTINENTAL","22"
"PETS_DOCTORNOK","4"
"AIRL_THAISMILES","240"
"HTEL_ACCOR_IBIS","95"
"FUND_LANDNHOUSE","1"
"JWLR_MAETHONGSUK","7"
"ATMB_BRIDGESTONE","195"
"AIRL_BRITISHAIR","56"
"DRUG_GNC","43"
"HSPT_PIYAVATE","5"
"ONLN_ITUNE","5"
"AIRL_NEWZEALAND","4"
"ELCT_TRUE","1022"
"DINN_NITTAYAKAI","40"
"DRUG_FASCINO","132"
"DUTY_KINGPOWER","91"
"CSMT_BEAUTYBUFFET","337"
"DINN_GOODVIEW","14"
"HTEL_ANANTARA","30"
"INSR_CHAOPRAYA","5"
"RLST_NARAI","3"
"EDUC_OTHER","2674"
"DINN_SANTAFESTEAK","231"
"HYPM_VILLAMARKET","150"
"JWLR_BETTERVISION","249"
"DINN_ZEN_ON_TABLE","32"
"HTEL_AMARI","35"
"FAHN_LYN","255"
"KIDS_ALPHAKID","4"
"AIRL_AMERICAN","67"
"DINN_YUU_JANG","3"
"ONLN_AIRPAY","5"
"TLCM_AIS","18"
"BEAU_WEFITNESS","423"
"RLST_LPN","23"
"TRVL_BOOKING","85"
"HTEL_LIMACOCO","2"
"AIRL_SWISSAIR","35"
"TRVL_QUALITY","4"
"INSR_CHUBB","180"
"HYPM_BIGC","1191"
"HTEL_HOLIDAYINN","118"
"FAHN_CHAPS","133"
"TRVL_STDELUXE","2"
"DINN_YUU_UPTOYUU","2"
"DINN_OTHER","22904"
"FAHN_OTHER","21616"
"DRUG_PHARMAX","21"
"BEAU_HEALTHLAND","22"
"TRVL_SIXSTAR","7"
"TRVL_HIS","22"
"AIRL_MALAYSLAN","19"
"BEAU_ABSOLUTE_HEALTH","12"
"FUND_PHATRA","13"
"HYPM_TESCO","3507"
"BEAU_OTHER","7028"
"DINN_AUBONPAIN","166"
"HSPT_SYNPHAET","14"
"HSPT_PHYATHAI2","6"
"HSHL_VERASU","64"
"HSPT_PHYATHAI3","6"
"DINN_POMODORO_AMICI","2"
"FAHN_PRADA","46"
"RLST_SANSIRI","10"
"ATMB_COCKPIT","101"
"ELCT_DTAC","1331"
"INSR_BANGKOK LIFE","60"
"DINN_HONMONO","20"
"HSPT_TAKSON","2"
"FAHN_BOYY","2"
"DINN_ICHITAN_ZAABELI","1"
"ELCT_AIS","1656"
"DINN_BURGERKING","130"
"FAHN_BATA","418"
"HYPM_CP","313"
"TRVL_OTHER","2274"
"ATMB_LEXUS","3"
"DINN_COFFEEBEANSDAO","34"
"DPTM_DIANA","21"
"DINN_DINTAIFUNG","21"
"AIRL_GARUDA","6"
"ATMB_TYREPLUS","9"
"TRVL_GM","2"
"RLST_MAJOR","4"
"PTRL_SHELL","1332"
"INSR_CIGNA","40"
"BEAU_TRUEFITNESS","2"
"HSPT_NAKORNTHON","11"
"HSPT_SAMITIVEJTHONBURI","5"
"DPTM_LAMPANGSERI","3"
"DINN_SANDP","2"
"DPTM_VOGUE","5"
"CSMT_MISTINE","1"
"PTRL_BANGCHAK","1799"
"STNR_OFFICEMATE","189"
"DINN_SIZZLER","139"
"ELCT_JIB","296"
"ATMB_AUTOBOY","10"
"DINN_ZEN_AKA","35"
"CSMT_UNICITY","47"
"DPTM_TOKYU","17"
"HSPT_PATTAYAMEMORIAL","4"
"DINN_YUU_UPTOU","2"
"KIDS_MODELS_WH","1"
"TRVL_MAJESTIC","1"
"DPTM_ROBINSON","165"
"AIRL_NOKAIR","8057"
"DPTM_EMPORIUM","6"
"DINN_BUA","25"
"DRUG_TSURUHA","45"
"BEAU_VIRGINACTIVE","2076"
"ONLN_LAZADA","13"
"HTEL_PLAZAATHENEE","4"
"INSR_ACS","2"
"DINN_ZEN_GYU_GRILL","2"
"INSR_OTHER","10141"
"ATMB_OTHER","8512"
"CSMT_GIFFARINE","186"
"HSHL_HOMEWORK","98"
"DINN_HUASENGHONG","88"
"FAHN_CHARLESKEITH","153"
"INSR_KRUNGTHAIAXA","302"
"FUND_KSAM","21"
"JWLR_OPTICSQUARE","33"
"HSHL_POWERMALL","10"
"HSPT_SUKHUMVIT","5"
"TRVL_TRAVELOKA","6"
"HYPM_WATSON","1166"
"PTRL_ESSO","768"
"DINN_SUKISHI_SEOULGRILL","11"
"AIRL_LUFTHANSA","170"
"TRVL_EIGHTSEVEN","2"
"INSR_AASIA","4"
"HSPT_PHYATHAI1","6"
"HSPT_PHYATHAISRIRACHA","4"
"HSPL_SF","287"
"DINN_OISHI_NIKUYA","18"
"FAHN_CCOO","99"
"HTEL_PENINSULA","3"
"AIRL_EVAAIR","125"
"DPTM_NASASHOP","4"
"HSPT_BANGPO","6"
"HSPT_BANGNA","5"
"HSHL_GRANDHOMEMART","15"
"RLST_LANDANDHOUSE","4"
"DINN_SAMYANSEAFOOD","5"
"KIDS_HAPPY_CONSOLE","2"
"HSPL_MAJOR","513"
"ATMB_NISSAN","228"
"DINN_VIETCUISINE","22"
"DPTM_TANGHUASENG","14"
"CSMT_HERBALLIFE","7"
"DINN_LEECAFE","20"
"HSPT_RAMKHAMHAENG","10"
"JWLR_TAGHEUER","7"
"INSR_BUPA","24"
"HSPT_RANGSIT","4"
"DINN_YUU_REST","3"
"DINN_MKSUKI","1783"
"PTRL_PT","2223"
"FAHN_ICC","32"
"DPTM_FAIRYPLAZA","3"
"DINN_HOTPOT","270"
"ELCT_ISTUDIO","49"
"BEAU_WUTTISAK","169"
"INSR_NEWHAMPSHIRES","24"
"DINN_CRG_YOSHINOYA","37"
"AIRL_CATHAY","329"
"BEAU_WONGSADA","8"
"CRRN_HERTZ","43"
"HTEL_ACCOR_ALLSEASON","1"
"HSPT_STLOUIS","8"
"JWLR_REGENTDIAMOND","3"
"JWLR_OTHER","6568"
"SPRT_ADIDAS","144"
"DINN_BANANALEAF","26"
"RLST_SUPALAI","18"
"INSR_SILKSPAN","6"
"RLST_PROPERTY","26"
"ATMB_MITSUBISHI","14"
"DINN_TIMHOWAN","14"
"AIRL_QANTAS","36"
"JWLR_PENDULUM","10"
"CRRN_UBER","14342"
"HSHL_BOONTHAVORN","92"
"STNR_B2S","264"
"INSR_THAILIFE","303"
"DPTM_ZEN","3"
"DPTM_CHAISAENG","6"
"AIRL_KOREANAIR","68"
"DRUG_ZUELLIG","7"
"HSPT_BANGKOK9","8"
"PTRL_PTT","4626"
"DINN_SP","418"
"AIRL_EMIRATESAIR","237"
"TRVL_KSS","5"
"ONLN_SHOPEE","2"
"HSPT_SRIVICHAI","2"
"DINN_ZEN_REST","109"
"CSMT_AMWAY","189"
"DINN_LAEMCHAROEN","65"
"AIRL_ETIHADAIR","46"
"FAHN_DAPPER","40"
"HSHL_CHICREP","14"
"ELCT_FUTUREAV","8"
"PETS_DDOGDAILY","1"
"DRUG_PETCHARAT","10"
"JWLR_AURORA","203"
"DRUG_OTHER","2243"
"CSMT_UNILEVER","59"
"DINN_SUSHIHANA","40"
"FAHN_OCC","16"
"FAHN_KTOPTIC","9"
"DINN_OISHI_DELIVERY","4"
"ELCT_ITCITY","189"
"FAHN_GUESS","39"
"INSR_SOUTHEASTLIFE","27"
"DINN_PIZZAHUT","139"
"DINN_JEFFERSTEK","153"
"HSHL_IKEA","21"
"HSPT_SAMITIVEJ","13"
"HTEL_PRINCE","13"
"DINN_13_COIN","11"
"HYPM_HOMEFRESHMART","37"
"FAHN_TOPCHAROEN","996"
"CRRN_WORLDCLASS","39"
"DRUG_PANDF","135"
"FUND_OTHER","9"
"HSPT_PRARAM9","9"
"HTEL_EVASON","3"
"AIRL_CHINA","61"
"BEAU_PUEWDEE","12"
"FUND_ABERDEEN","1"
"HYPM_TOPS","494"
"BEAU_PAN","121"
"CRRN_OTHER","990"
"FAHN_FNFACTORY","22"
"FAHN_HISHER","82"
"ATMB_MILLENNIUM","17"
"CRRN_SIXT","25"
"ELCT_IMOBILE","45"
"DPTM_FRIDAY","9"
"HSPT_SIRIRAJ","19"
"HSPT_RATTANATIBETH","3"
"KIDS_PHANTOM","2"
"HSPT_BAANBOUNG","3"
"DINN_SWENSENS","555"
"RLST_PRUKSA","27"
"AIRL_SINGAPOREAIR","130"
"JWLR_TIMEDECO","20"
"BEAU_SIAMLASER","33"
"RLST_GRANDUNITY","1"
"PTRL_OTHER","3549"
"AIRL_LION","540"
"DINN_BANKLANGNAM","8"
"ELCT_JAYMART","233"
"INSR_PRUDENTIAL","98"
"HSHL_AMORN","145"
"FAHN_JASPAL","127"
"DINN_SUKISHI_BUFFET","46"
"HTEL_BANYANTREE","12"
"UTLT_COUNTER","3"
"TRVL_ONEWORLD","1"
"HSHL_HOMEPRO","336"
"DINN_OISHI_GROUP","12"
"HSPT_THONBURI","30"
"DUTY_OTHER","726"
"HSPT_RAMATHIBODI","9"
"AIRL_TIGER","34"
"JWLR_HUASENGHENG","12"
"CSMT_JEUNESSE","7"
"HSPT_KRUNGSIAM","5"
"FAHN_HERMES","2"
"HSHL_SIAMGLOBAL","240"
"HSHL_OTHER","8307"
"HTEL_OTHER","9937"
"TLCM_DTAC","381"
"FAHN_AIIZ","172"
"FAHN_ZARA","327"
"HTEL_ACCOR_MERCURE","67"
"HSPT_MISSION","3"
"HTEL_ASARA","3"
"HTEL_JOMTIEN","2"
"FAHN_UNIQLO","191"
"INSR_TOKIOMARINE","1748"
"JWLR_EYELAB","67"
"DINN_TOHKAI","44"
"DINN_KUMPOON","12"
"HSPT_VICHAIYUT","11"
"JWLR_AUDEMARS","2"
"DPTM_INFINITE","6"
"STNR_LOFT","12"
"INSR_AIA","18623"
"KIDS_OTHER","1709"
"ONLN_11STREET","10"
"HYPM_MAXVALUE","210"
"ONLN_ALIEXPRESS","25"
"HSHL_DOHOME","49"
"HSHL_SB","62"
"JWLR_JUBILEE","22"
"HTEL_ACCOR_NOVOTEL","100"
"DINN_SPAGHETTI","8"
"DINN_YAMAGOYA","16"
"HSPT_CHULARAT","18"
"DINN_CHOKCHAI","13"
"HSHL_OMAZZ","4"
"HSPT_CHAOPHYA","6"
"CSMT_JAELENG","4"
"ATMB_BMW","6"
"TRVL_EXPEDIA","1744"
"CSMT_EVEANDBOY","25"
"DPTM_CENTRAL","161"
"DINN_FUJI","466"
"AIRL_UNITEDAIR","131"
"HTEL_ALEETA","4"
"DINN_ZEN_MORIMORI","1"
"UTLT_MWA","2"
"ELCT_OTHER","8697"
"HSPT_YANHEE","13"
"JWLR_SWAROVSKI","20"
"FAHN_COACH","159"
"ELCT_HARDWAREHOUSE","21"
"DPTM_TAVEEKIJ","1"
"DPTM_SERIDEPT","2"
"FAHN_WONDERFUL","3"
"AIRL_BANGKOKAIR","1886"
"SLMM_OTHER","104"
"HTEL_SHERATON","57"
"DINN_OISHI_KAKASHI","5"
"HTEL_RENAISSANCE","27"
"SPRT_THENORTHFACE","17"
"JWLR_PRIMAGOLD","18"
