"MERCHANT_GROUP","COUNT(*)"
"DINN_BOONTONGKEE","14"
"HSPT_BANGKOK","99"
"AIRL_THAIAIRWAYS","136"
"AIRL_ANAJAPAN","100"
"FAHN_KIPLING","43"
"DINN_OISHI_GRAND","3"
"FAHN_LACOSTE","55"
"DINN_OISHI_SHABUSHI","128"
"DINN_CRG_PEPPERLUNCH","62"
"TLCM_OTHER","970"
"INSR_MANULIFE","434"
"CSMT_SEPHORA","95"
"DPTM_FAIRYLAND","4"
"CRRN_GRAB","8"
"DINN_DAIDOMON","9"
"HYPM_FOODLAND","60"
"HTEL_DUSIT","55"
"DINN_BONCHON","82"
"BEAU_NITIPOL","202"
"DINN_TALINGPLING","14"
"DINN_SAVOEY","39"
"HTEL_VERANDA","20"
"INSR_SCB","42"
"HSHL_MODERNFORM","15"
"DPTM_CHUMPHONOCEAN","13"
"DINN_BARBQPLAZA","262"
"INSR_SYNMUNKONG","197"
"ELCT_POWERBUY","170"
"HTEL_ACCOR_PULLMAN","27"
"AIRL_QATARAIR","75"
"DPTM_KLANGPLAZA","9"
"PETS_PKPETMART","3"
"UTLT_MEA","4"
"ONLN_GOOGLE","3891"
"CSMT_NUSKIN","40"
"SPRT_DECATHLON","26"
"HTEL_HARDROCK","6"
"AIRL_JETSTARAIR","227"
"AIRL_JAPANAIR","118"
"AIRL_CANADA","26"
"INSR_THAIVIVAT","21"
"ATMB_CHEVROLET","19"
"DPTM_PARAGON","12"
"DINN_KIMJU","22"
"HSHL_INDEX","107"
"HYPM_BOOTS","653"
"HSPT_BANGPAKOK","19"
"PETS_MALETKHAOPET","6"
"DINN_TEXASSUKI","10"
"INSR_ALIFE","4"
"SPRT_OTHER","1873"
"ELCT_BANANAIT","84"
"DINN_NARAIPIZZARIA","39"
"INSR_SCILIFE","437"
"DINN_SAKURA","18"
"PETS_ROYALCANIN","2"
"CRRN_KRUNGTHAI","4"
"DINN_KALAPRAPRUEK","3"
"KIDS_PHUKET_SANUK","1"
"DINN_THEPIZZA","348"
"DINN_MCDONALD","411"
"DINN_KFC","7"
"RLST_AP","20"
"INSR_BANGKOKINSURANCE","80"
"HSPT_VIBHARAM","17"
"DINN_POMODORO_GUSTOSO","3"
"HTEL_CENTARA","85"
"AIRL_AIRASIA","13966"
"BEAU_APEX","33"
"HSPT_BANGKOKCHRISTIAN","10"
"DINN_SUSHIMASA","6"
"DINN_ICHITAN_MELTME","12"
"AIRL_PHILIPPINE","29"
"TRVL_AGODA","13"
"TRVL_COSMOS","1"
"HSPT_VIBHAVADI","10"
"HSPT_LADPRAO","8"
"DINN_FOURSEASONS","19"
"ELCT_CAMERAWORLD","61"
"AIRL_FRANCE","60"
"FAHN_MANGO","86"
"FAHN_BOSSINI","42"
"DRUG_ICAREHEALTH","42"
"AIRL_DUTCH","83"
"TRVL_CHAIRAK","11"
"INSR_DHIPAYA","58"
"DINN_SANSAB","15"
"TRVL_WONDERFUL","8"
"DINN_STARBUCKS","1188"
"HYPM_OTHER","7254"
"CSMT_ORIENTAL","700"
"ELCT_BIGCAMERA","243"
"AIRL_OTHER","4954"
"HSHL_HOMEHUB","19"
"DINN_CRG_OOTOYA","101"
"HTEL_HYATT","60"
"INSR_VIRIYAH","118"
"CRRN_AVIS","125"
"INSR_TESCO","95"
"AIRL_DELTA","76"
"CSMT_BODYSHOP","15"
"ELCT_APPLE","1"
"TRVL_DISCOVERY","2"
"HSPT_NONTHAVEJ","8"
"TLCM_3BB","867"
"HYPM_GOURMET","23"
"ONLN_OMISE","166"
"HTEL_AIRBNB","723"
"FAHN_LOUISVUITTON","8"
"FAHN_ZALORA","1"
"HTEL_LERMERIDIEN","20"
"CRRN_THAIRENT","33"
"HYPM_GOLDENPLACE","24"
"JWLR_PANDORA","60"
"HSPT_BUMRUNGRAD","5"
"HSPT_KLUAYNAMTHAI","3"
"DPTM_PARADISE","3"
"DPTM_OTHER","5540"
"OTHR_OTHER","23303"
"KIDS_TOYS_STATION","3"
"HSPT_HUACHIEW","10"
"HSPT_SAMITIVEJSRIRACHA","5"
"DINN_HUAPLACHONG","22"
"ATMB_MAZDA","96"
"HSPT_SIKARIN","6"
"ONLN_FACEBOOK","12290"
"TLCM_TOT","598"
"DPTM_ISETON","30"
"HSPL_MRT","140"
"SLMM_SLIMUP","22"
"HSHL_KONCEPT","3"
"KIDS_BALL_BALL","1"
"PETS_OTHER","1844"
"HSPT_SAMITIVEJSRINAKARIN","6"
"HYPM_711","2634"
"DINN_CRG_CHABUTON","47"
"BEAU_ROMRAWIN","42"
"INSR_THAIOCEAN","67"
"HSPT_CHIANGMAIRAM","7"
"INSR_AIG","20"
"HTEL_HILTON","95"
"DINN_OISHI_EXPRESS","2"
"ATMB_AAS","3"
"DPTM_KANOCKAN","7"
"ONLN_BLUEPAY","3"
"INSR_THAIINSURANCE","470"
"BEAU_PORNKASEM","100"
"DINN_DAKGALBI","29"
"DINN_SCOOZI","32"
"BEAU_PRUKSA","51"
"HTEL_ACCOR_SOFITEL","37"
"HSPT_VEJTHANI","6"
"ATMB_SUZUKI","45"
"CSMT_KARMART","33"
"HSPT_SIKARINHATYAI","1"
"ONLN_PAYPAL","5736"
"PETS_THONGLORPET","32"
"INSR_TQM","12"
"HSPT_CHULA","17"
"BEAU_SPARSHA","41"
"INSR_ASIA","19"
"CRRN_BUDGET","4"
"ONLN_WEMALL","3"
"TRVL_FOREVER","2"
"HSHL_CHANINTR","1"
"TRVL_CHEAPTICKET","2"
"HSHL_MEGAHOME","33"
"HSPT_PAOLO","25"
"HSPL_BTS","108"
"CSMT_CUTEPRESS","310"
"HSPT_THAINAKARIN","7"
"INSR_MUANGTHAILIFE","3434"
"RLST_ANANDA","15"
"KIDS_KIDZUKA","3"
"FUND_MFC","2"
"HSHL_THAIWATSADU","1"
"TRVL_SBA","1"
"DINN_SEEFAH","65"
"HSPL_THAITICKET","14"
"HSHL_HAFELE","8"
"DINN_CRG_TERRACE","38"
"SLMM_MARIEFRANCE","2"
"DPTM_SERMTHAICOMPLEX","3"
"HSPL_OTHER","1596"
"INSR_FWD","75"
"CSMT_OTHER","3540"
"DINN_BLACKCANYON","273"
"DINN_KASAJAPANESE","37"
"ATMB_BQUIK","408"
"INSR_AACP","591"
"HTEL_MARIOTT","106"
"DINN_DEANDELUCA","26"
"BEAU_KLINIQUE","34"
"DPTM_KADKAM","2"
"FAHN_CHANEL","5"
"DINN_YUMSAAP","96"
"SPRT_FBT","16"
"KIDS_NADZ_PROJECT","6"
"FAHN_OPTICAL88","69"
"JWLR_MODERNOPTICAL","24"
"PTRL_CALTEX","10"
"SPRT_SUPERSPORT","373"
"DINN_OISHI_RAMEN","10"
"RLST_OTHER","1598"
"ATMB_TOYOTA","908"
"ATMB_HONDA","588"
"DINN_HONGMIN","23"
"INSR_GENERALI","85"
"SPRT_SPORTWORLD","57"
"ELCT_ADVICE","117"
"DINN_CRG_COLDSTONE","33"
"DINN_COCO_ICHIBAN","23"
"FUND_KTAM","1"
"KIDS_KIDDO_PACIFIC","1"
"DINN_SUKISHI_BBQ","74"
"FAHN_HANDM","223"
"TLCM_CAT","132"
"DINN_COCA","48"
"HSPT_KASEMRAD","30"
"KIDS_TOYRUS","46"
"HSHL_CPAC","6"
"INSR_THANACHARTLIFE","8"
"DPTM_EMQUARTIER","7"
"ATMB_ISUZU","289"
"BEAU_FITNESSFIRST","169"
"DINN_LITTLEHOME","19"
"JWLR_CITYCHAIN","31"
"HSPT_BNH","10"
"KIDS_ROCKINGKIDS","1"
"HSPT_OTHER","1003"
"DPTM_THEMALL","57"
"ATMB_FORD","35"
"HTEL_SIAMKEMPINSKI","4"
"HSPT_BANGMOD","4"
"CRRN_RENTALCARS","9"
"TRVL_CHARAL","8"
"DPTM_SERMTHAIPLAZA","2"
"BEAU_RAJDHEVEE","116"
"DINN_YAYOI","167"
"INSR_SIAMSAMSUNG","23"
"TLCM_TRUE","16510"
"AIRL_THAISMILES","438"
"HTEL_INTERCONTINENTAL","29"
"HTEL_ACCOR_IBIS","116"
"INSR_MUANGTHAIINS","20"
"PETS_DOCTORNOK","2"
"FAHN_LEVI","107"
"FUND_LANDNHOUSE","1"
"AIRL_BRITISHAIR","61"
"ATMB_BRIDGESTONE","186"
"DRUG_GNC","40"
"HSPT_PIYAVATE","6"
"JWLR_MAETHONGSUK","7"
"ONLN_ITUNE","6"
"AIRL_NEWZEALAND","6"
"DRUG_FASCINO","149"
"ELCT_TRUE","1005"
"DINN_NITTAYAKAI","39"
"DUTY_KINGPOWER","99"
"CSMT_BEAUTYBUFFET","324"
"DINN_GOODVIEW","13"
"HTEL_ANANTARA","34"
"INSR_CHAOPRAYA","2"
"RLST_NARAI","2"
"HYPM_VILLAMARKET","131"
"DINN_SANTAFESTEAK","254"
"JWLR_BETTERVISION","315"
"EDUC_OTHER","2653"
"HTEL_AMARI","37"
"DINN_ZEN_ON_TABLE","42"
"FAHN_LYN","226"
"KIDS_ALPHAKID","6"
"ONLN_AIRPAY","6"
"AIRL_AMERICAN","88"
"DINN_YUU_JANG","3"
"BEAU_WEFITNESS","423"
"TLCM_AIS","21"
"TRVL_BOOKING","247"
"TRVL_QUALITY","5"
"RLST_LPN","30"
"AIRL_SWISSAIR","42"
"HTEL_LIMACOCO","2"
"HYPM_BIGC","1326"
"INSR_CHUBB","188"
"FAHN_CHAPS","100"
"HTEL_HOLIDAYINN","127"
"TRVL_STDELUXE","6"
"DINN_YUU_UPTOYUU","4"
"DINN_OTHER","25823"
"FAHN_OTHER","22758"
"AIRL_MALAYSLAN","11"
"BEAU_HEALTHLAND","29"
"DRUG_PHARMAX","22"
"FUND_PHATRA","24"
"TRVL_SIXSTAR","2"
"TRVL_HIS","38"
"BEAU_ABSOLUTE_HEALTH","10"
"HYPM_TESCO","3593"
"BEAU_OTHER","7508"
"DINN_AUBONPAIN","172"
"HSPT_SYNPHAET","13"
"HSPT_PHYATHAI2","6"
"HSPT_PHYATHAI3","6"
"DINN_POMODORO_AMICI","1"
"HSHL_VERASU","57"
"FAHN_PRADA","54"
"RLST_SANSIRI","12"
"ELCT_DTAC","1289"
"ATMB_COCKPIT","114"
"INSR_BANGKOK LIFE","75"
"DINN_HONMONO","21"
"KIDS_TAMASHII_ERA","4"
"FAHN_BOYY","2"
"HSPT_TAKSON","3"
"DINN_ICHITAN_ZAABELI","1"
"HYPM_CP","349"
"ELCT_AIS","1678"
"TRVL_OTHER","2587"
"DINN_BURGERKING","135"
"FAHN_BATA","482"
"AIRL_GARUDA","12"
"DINN_COFFEEBEANSDAO","37"
"ATMB_LEXUS","8"
"DINN_DINTAIFUNG","24"
"DPTM_DIANA","17"
"TRVL_GM","2"
"RLST_MAJOR","3"
"ATMB_TYREPLUS","6"
"PTRL_SHELL","1405"
"INSR_CIGNA","42"
"HSPT_NAKORNTHON","12"
"HSPT_SAMITIVEJTHONBURI","5"
"DPTM_LAMPANGSERI","3"
"DINN_SANDP","2"
"DPTM_VOGUE","4"
"CSMT_MISTINE","1"
"PTRL_BANGCHAK","1961"
"DINN_SIZZLER","146"
"ELCT_JIB","287"
"DINN_ZEN_AKA","39"
"STNR_OFFICEMATE","193"
"CSMT_UNICITY","16"
"TRVL_MAJESTIC","2"
"DPTM_TOKYU","29"
"HSPT_PATTAYAMEMORIAL","3"
"ATMB_AUTOBOY","9"
"KIDS_MODELS_WH","1"
"DPTM_ROBINSON","171"
"AIRL_NOKAIR","3601"
"DRUG_TSURUHA","44"
"DINN_BUA","21"
"BEAU_VIRGINACTIVE","2225"
"DPTM_EMPORIUM","6"
"ONLN_LAZADA","10"
"HTEL_PLAZAATHENEE","2"
"INSR_ACS","2"
"DINN_ZEN_GYU_GRILL","2"
"HSHL_HOMEWORK","99"
"CSMT_GIFFARINE","201"
"ATMB_OTHER","8612"
"INSR_OTHER","10036"
"FAHN_CHARLESKEITH","156"
"DINN_HUASENGHONG","100"
"FUND_KSAM","29"
"INSR_KRUNGTHAIAXA","217"
"JWLR_OPTICSQUARE","33"
"HSPT_SUKHUMVIT","5"
"HSHL_POWERMALL","9"
"TRVL_TRAVELOKA","6"
"HYPM_WATSON","1188"
"PTRL_ESSO","748"
"DINN_SUKISHI_SEOULGRILL","8"
"INSR_AASIA","3"
"AIRL_LUFTHANSA","130"
"TRVL_EIGHTSEVEN","2"
"HSPT_PHYATHAI1","7"
"DINN_OISHI_NIKUYA","19"
"HTEL_PENINSULA","7"
"HSPL_SF","260"
"FAHN_CCOO","100"
"HSPT_PHYATHAISRIRACHA","4"
"AIRL_EVAAIR","130"
"DPTM_NASASHOP","4"
"HSPT_BANGNA","5"
"HSPT_BANGPO","7"
"HSHL_GRANDHOMEMART","11"
"KIDS_HAPPY_CONSOLE","3"
"DINN_SAMYANSEAFOOD","4"
"RLST_LANDANDHOUSE","9"
"DINN_VIETCUISINE","20"
"HSPL_MAJOR","361"
"DPTM_TANGHUASENG","14"
"ATMB_NISSAN","227"
"CSMT_HERBALLIFE","9"
"DINN_LEECAFE","20"
"HSPT_RAMKHAMHAENG","9"
"JWLR_TAGHEUER","10"
"INSR_BUPA","21"
"HSPT_RANGSIT","3"
"DINN_YUU_REST","3"
"DINN_HOTPOT","280"
"PTRL_PT","2490"
"DINN_MKSUKI","1834"
"INSR_NEWHAMPSHIRES","22"
"AIRL_CATHAY","235"
"FAHN_ICC","33"
"BEAU_WUTTISAK","161"
"DPTM_FAIRYPLAZA","3"
"DINN_CRG_YOSHINOYA","35"
"HSPT_STLOUIS","9"
"ELCT_ISTUDIO","46"
"CRRN_HERTZ","45"
"BEAU_WONGSADA","9"
"HTEL_ACCOR_ALLSEASON","3"
"JWLR_REGENTDIAMOND","4"
"JWLR_OTHER","6940"
"INSR_SILKSPAN","5"
"RLST_SUPALAI","13"
"SPRT_ADIDAS","151"
"DINN_BANANALEAF","22"
"RLST_PROPERTY","25"
"AIRL_QANTAS","32"
"ATMB_MITSUBISHI","13"
"DINN_TIMHOWAN","14"
"JWLR_PENDULUM","7"
"HSHL_BOONTHAVORN","95"
"STNR_B2S","259"
"INSR_THAILIFE","329"
"CRRN_UBER","15968"
"AIRL_KOREANAIR","52"
"DPTM_ZEN","3"
"DPTM_CHAISAENG","3"
"DRUG_ZUELLIG","5"
"HSPT_BANGKOK9","8"
"PTRL_PTT","4831"
"DINN_SP","520"
"AIRL_EMIRATESAIR","250"
"ONLN_SHOPEE","2"
"HSPT_SRIVICHAI","4"
"TRVL_KSS","1"
"DINN_ZEN_REST","116"
"CSMT_AMWAY","178"
"DINN_LAEMCHAROEN","71"
"HSHL_CHICREP","16"
"FAHN_DAPPER","35"
"AIRL_ETIHADAIR","64"
"ELCT_FUTUREAV","8"
"DRUG_PETCHARAT","10"
"DRUG_OTHER","2489"
"JWLR_AURORA","205"
"CSMT_UNILEVER","53"
"DINN_SUSHIHANA","40"
"FAHN_KTOPTIC","8"
"FAHN_OCC","10"
"DINN_OISHI_DELIVERY","5"
"ELCT_ITCITY","192"
"FAHN_GUESS","33"
"DINN_PIZZAHUT","154"
"HSHL_IKEA","40"
"DINN_JEFFERSTEK","165"
"INSR_SOUTHEASTLIFE","33"
"HSPT_SAMITIVEJ","12"
"HTEL_PRINCE","18"
"DINN_13_COIN","12"
"FUND_OTHER","12"
"HYPM_HOMEFRESHMART","37"
"FAHN_TOPCHAROEN","1083"
"HSPT_PRARAM9","9"
"DRUG_PANDF","132"
"CRRN_WORLDCLASS","37"
"HTEL_EVASON","3"
"BEAU_PUEWDEE","8"
"AIRL_CHINA","63"
"FUND_ABERDEEN","1"
"HYPM_TOPS","579"
"BEAU_PAN","116"
"CRRN_OTHER","1308"
"FAHN_FNFACTORY","24"
"FAHN_HISHER","100"
"ATMB_MILLENNIUM","16"
"ELCT_IMOBILE","47"
"CRRN_SIXT","17"
"HSPT_SIRIRAJ","21"
"HSPT_RATTANATIBETH","3"
"DPTM_FRIDAY","9"
"KIDS_PHANTOM","2"
"HSPT_BAANBOUNG","3"
"DINN_SWENSENS","621"
"AIRL_SINGAPOREAIR","88"
"BEAU_SIAMLASER","38"
"JWLR_TIMEDECO","24"
"RLST_PRUKSA","28"
"RLST_GRANDUNITY","5"
"PTRL_OTHER","3608"
"DINN_BANKLANGNAM","9"
"HSHL_AMORN","138"
"DINN_SUKISHI_BUFFET","39"
"FAHN_JASPAL","126"
"ELCT_JAYMART","246"
"INSR_PRUDENTIAL","97"
"AIRL_LION","435"
"TRVL_ONEWORLD","4"
"UTLT_COUNTER","4"
"HTEL_BANYANTREE","8"
"HSHL_HOMEPRO","345"
"HSPT_THONBURI","36"
"DUTY_OTHER","906"
"DINN_OISHI_GROUP","12"
"HSPT_RAMATHIBODI","8"
"AIRL_TIGER","49"
"JWLR_HUASENGHENG","16"
"CSMT_JEUNESSE","9"
"HSPT_KRUNGSIAM","3"
"FAHN_HERMES","3"
"HSHL_SIAMGLOBAL","249"
"HSHL_OTHER","9666"
"FAHN_AIIZ","194"
"HTEL_OTHER","12274"
"FAHN_ZARA","281"
"TLCM_DTAC","286"
"HTEL_ACCOR_MERCURE","91"
"HSPT_MISSION","2"
"HTEL_ASARA","2"
"HTEL_JOMTIEN","3"
"FAHN_UNIQLO","208"
"DINN_KUMPOON","15"
"DINN_TOHKAI","45"
"INSR_TOKIOMARINE","1056"
"JWLR_EYELAB","70"
"HSPT_VICHAIYUT","8"
"DPTM_INFINITE","7"
"STNR_LOFT","12"
"JWLR_AUDEMARS","2"
"INSR_AIA","22944"
"ONLN_11STREET","9"
"HYPM_MAXVALUE","214"
"KIDS_OTHER","1710"
"HSHL_DOHOME","49"
"HSHL_SB","53"
"JWLR_JUBILEE","34"
"ONLN_ALIEXPRESS","36"
"HTEL_ACCOR_NOVOTEL","101"
"HSPT_CHAOPHYA","8"
"DINN_YAMAGOYA","14"
"DINN_CHOKCHAI","12"
"HSPT_CHULARAT","22"
"DINN_SPAGHETTI","7"
"ATMB_BMW","8"
"CSMT_JAELENG","4"
"HSHL_OMAZZ","6"
"DINN_FUJI","481"
"DPTM_CENTRAL","164"
"TRVL_EXPEDIA","2391"
"CSMT_EVEANDBOY","21"
"HTEL_ALEETA","5"
"AIRL_UNITEDAIR","88"
"DINN_ZEN_MORIMORI","1"
"UTLT_MWA","2"
"ELCT_OTHER","9358"
"HSPT_YANHEE","13"
"JWLR_SWAROVSKI","15"
"FAHN_COACH","142"
"ELCT_HARDWAREHOUSE","24"
"DPTM_TAVEEKIJ","3"
"DPTM_SERIDEPT","2"
"AIRL_BANGKOKAIR","1154"
"SLMM_OTHER","106"
"SPRT_THENORTHFACE","21"
"HTEL_RENAISSANCE","25"
"HTEL_SHERATON","63"
"DINN_OISHI_KAKASHI","9"
"JWLR_PRIMAGOLD","23"
