"MERCHANT_GROUP","COUNT(*)"
"HSPT_BANGKOK","106"
"AIRL_THAIAIRWAYS","154"
"AIRL_ANAJAPAN","115"
"DINN_BOONTONGKEE","15"
"FAHN_KIPLING","46"
"FAHN_LACOSTE","44"
"DINN_OISHI_GRAND","3"
"TLCM_OTHER","959"
"DINN_OISHI_SHABUSHI","132"
"CSMT_SEPHORA","91"
"INSR_MANULIFE","346"
"DPTM_FAIRYLAND","4"
"DINN_CRG_PEPPERLUNCH","59"
"CRRN_GRAB","7"
"DINN_DAIDOMON","9"
"HYPM_FOODLAND","59"
"DINN_SAVOEY","39"
"DINN_BONCHON","86"
"HTEL_DUSIT","50"
"DINN_TALINGPLING","13"
"BEAU_NITIPOL","189"
"INSR_SCB","39"
"HTEL_VERANDA","19"
"HSHL_MODERNFORM","22"
"DPTM_CHUMPHONOCEAN","12"
"DINN_BARBQPLAZA","262"
"AIRL_QATARAIR","116"
"INSR_SYNMUNKONG","196"
"HTEL_ACCOR_PULLMAN","30"
"ELCT_POWERBUY","178"
"DPTM_KLANGPLAZA","13"
"PETS_PKPETMART","3"
"UTLT_MEA","4"
"CSMT_NUSKIN","38"
"ONLN_GOOGLE","3879"
"SPRT_DECATHLON","27"
"AIRL_JAPANAIR","115"
"AIRL_JETSTARAIR","216"
"HTEL_HARDROCK","7"
"INSR_THAIVIVAT","22"
"DPTM_PARAGON","11"
"DINN_KIMJU","19"
"ATMB_CHEVROLET","24"
"AIRL_CANADA","4"
"HSHL_INDEX","104"
"HYPM_BOOTS","669"
"PETS_MALETKHAOPET","5"
"HSPT_BANGPAKOK","20"
"DINN_TEXASSUKI","12"
"INSR_ALIFE","3"
"SPRT_OTHER","1857"
"DINN_SAKURA","16"
"DINN_NARAIPIZZARIA","42"
"ELCT_BANANAIT","89"
"INSR_SCILIFE","441"
"PETS_ROYALCANIN","3"
"CRRN_KRUNGTHAI","3"
"DINN_KALAPRAPRUEK","2"
"KIDS_PHUKET_SANUK","3"
"INSR_BANGKOKINSURANCE","77"
"DINN_THEPIZZA","331"
"DINN_MCDONALD","434"
"DINN_KFC","7"
"RLST_AP","30"
"HSPT_VIBHARAM","16"
"DINN_POMODORO_GUSTOSO","3"
"AIRL_AIRASIA","15638"
"HTEL_CENTARA","77"
"DINN_SUSHIMASA","7"
"HSPT_BANGKOKCHRISTIAN","9"
"AIRL_PHILIPPINE","24"
"BEAU_APEX","26"
"TRVL_AGODA","13"
"DINN_ICHITAN_MELTME","7"
"HSPT_VIBHAVADI","10"
"ELCT_CAMERAWORLD","62"
"DINN_FOURSEASONS","16"
"HSPT_LADPRAO","7"
"AIRL_FRANCE","57"
"FAHN_MANGO","66"
"DRUG_ICAREHEALTH","45"
"INSR_DHIPAYA","56"
"FAHN_BOSSINI","39"
"TRVL_CHAIRAK","12"
"AIRL_DUTCH","60"
"DINN_SANSAB","17"
"TRVL_WONDERFUL","5"
"HYPM_OTHER","6526"
"DINN_STARBUCKS","1122"
"AIRL_OTHER","6216"
"DINN_CRG_OOTOYA","103"
"HTEL_HYATT","58"
"CSMT_ORIENTAL","690"
"CRRN_AVIS","83"
"HSHL_HOMEHUB","17"
"ELCT_BIGCAMERA","233"
"INSR_VIRIYAH","119"
"INSR_TESCO","107"
"AIRL_DELTA","77"
"CSMT_BODYSHOP","17"
"ELCT_APPLE","1"
"TRVL_DISCOVERY","1"
"HSPT_NONTHAVEJ","10"
"TLCM_3BB","870"
"ONLN_OMISE","190"
"HTEL_AIRBNB","894"
"HYPM_GOURMET","24"
"FAHN_LOUISVUITTON","8"
"FAHN_ZALORA","1"
"JWLR_PANDORA","53"
"HTEL_LERMERIDIEN","25"
"HYPM_GOLDENPLACE","23"
"CRRN_THAIRENT","33"
"DPTM_PARADISE","3"
"HSPT_KLUAYNAMTHAI","2"
"HSPT_BUMRUNGRAD","4"
"DPTM_OTHER","5086"
"OTHR_OTHER","22592"
"KIDS_TOYS_STATION","2"
"DINN_HUAPLACHONG","22"
"HSPT_HUACHIEW","10"
"ATMB_MAZDA","94"
"HSPT_SAMITIVEJSRIRACHA","6"
"HSPT_SIKARIN","6"
"ONLN_FACEBOOK","14299"
"HSPL_MRT","141"
"TLCM_TOT","480"
"DPTM_ISETON","31"
"SLMM_SLIMUP","29"
"HSHL_KONCEPT","4"
"KIDS_BALL_BALL","1"
"HSPT_SAMITIVEJSRINAKARIN","6"
"HYPM_711","2444"
"DINN_CRG_CHABUTON","48"
"PETS_OTHER","1819"
"HSPT_CHIANGMAIRAM","11"
"DPTM_KANOCKAN","7"
"HTEL_HILTON","104"
"BEAU_ROMRAWIN","45"
"INSR_AIG","24"
"INSR_THAIOCEAN","68"
"DINN_OISHI_EXPRESS","5"
"ATMB_AAS","4"
"ONLN_BLUEPAY","3"
"BEAU_PORNKASEM","95"
"BEAU_PRUKSA","40"
"HSPT_VEJTHANI","8"
"HTEL_ACCOR_SOFITEL","34"
"DINN_DAKGALBI","28"
"ATMB_SUZUKI","55"
"INSR_THAIINSURANCE","429"
"CSMT_KARMART","36"
"DINN_SCOOZI","34"
"HSPT_SIKARINHATYAI","1"
"ONLN_PAYPAL","5562"
"HSPT_CHULA","15"
"INSR_TQM","11"
"PETS_THONGLORPET","36"
"BEAU_SPARSHA","42"
"CRRN_BUDGET","7"
"INSR_ASIA","22"
"ONLN_WEMALL","3"
"TRVL_FOREVER","1"
"HSHL_CHANINTR","2"
"TRVL_CHEAPTICKET","2"
"HSPL_BTS","108"
"CSMT_CUTEPRESS","326"
"HSPT_PAOLO","27"
"INSR_MUANGTHAILIFE","3470"
"HSPT_THAINAKARIN","7"
"HSHL_MEGAHOME","30"
"RLST_ANANDA","16"
"TRVL_SBA","1"
"FUND_MFC","2"
"KIDS_KIDZUKA","3"
"HSPL_THAITICKET","14"
"SLMM_MARIEFRANCE","2"
"DINN_SEEFAH","55"
"HSHL_HAFELE","12"
"DINN_CRG_TERRACE","40"
"DPTM_SERMTHAICOMPLEX","3"
"HSPL_OTHER","1412"
"DINN_BLACKCANYON","299"
"ATMB_BQUIK","400"
"DINN_KASAJAPANESE","38"
"INSR_FWD","86"
"CSMT_OTHER","3509"
"INSR_AACP","590"
"HTEL_MARIOTT","107"
"DINN_DEANDELUCA","33"
"BEAU_KLINIQUE","37"
"DPTM_KADKAM","1"
"FAHN_CHANEL","6"
"FAHN_BOTTEGA","4"
"DINN_YUMSAAP","97"
"SPRT_FBT","17"
"FAHN_OPTICAL88","75"
"KIDS_NADZ_PROJECT","6"
"JWLR_MODERNOPTICAL","19"
"PTRL_CALTEX","15"
"ATMB_HONDA","579"
"ATMB_TOYOTA","975"
"SPRT_SUPERSPORT","362"
"RLST_OTHER","1622"
"INSR_GENERALI","76"
"SPRT_SPORTWORLD","54"
"DINN_HONGMIN","19"
"DINN_OISHI_RAMEN","10"
"ELCT_ADVICE","56"
"DINN_CRG_COLDSTONE","35"
"DINN_COCO_ICHIBAN","12"
"KIDS_KIDDO_PACIFIC","4"
"FUND_KTAM","1"
"FAHN_HANDM","202"
"KIDS_TOYRUS","42"
"TLCM_CAT","155"
"DINN_COCA","49"
"DINN_SUKISHI_BBQ","70"
"HSPT_KASEMRAD","34"
"HSHL_CPAC","8"
"INSR_THANACHARTLIFE","10"
"DPTM_EMQUARTIER","8"
"BEAU_FITNESSFIRST","176"
"ATMB_ISUZU","295"
"DINN_LITTLEHOME","20"
"JWLR_CITYCHAIN","30"
"HSPT_BNH","9"
"KIDS_ROCKINGKIDS","2"
"HSPT_OTHER","992"
"DPTM_THEMALL","59"
"ATMB_FORD","41"
"HTEL_SIAMKEMPINSKI","3"
"HSPT_BANGMOD","5"
"CRRN_RENTALCARS","12"
"TRVL_CHARAL","8"
"DPTM_SERMTHAIPLAZA","2"
"DINN_YAYOI","172"
"BEAU_RAJDHEVEE","105"
"INSR_SIAMSAMSUNG","18"
"TLCM_TRUE","16436"
"AIRL_THAISMILES","477"
"INSR_MUANGTHAIINS","19"
"FAHN_LEVI","93"
"PETS_DOCTORNOK","3"
"HTEL_ACCOR_IBIS","107"
"HTEL_INTERCONTINENTAL","25"
"FUND_LANDNHOUSE","1"
"ATMB_BRIDGESTONE","205"
"JWLR_MAETHONGSUK","7"
"AIRL_BRITISHAIR","60"
"DRUG_GNC","39"
"HSPT_PIYAVATE","8"
"ONLN_ITUNE","6"
"AIRL_NEWZEALAND","5"
"ELCT_TRUE","1067"
"DUTY_KINGPOWER","102"
"DINN_NITTAYAKAI","60"
"DRUG_FASCINO","149"
"CSMT_BEAUTYBUFFET","332"
"HTEL_ANANTARA","35"
"DINN_GOODVIEW","14"
"INSR_CHAOPRAYA","5"
"RLST_NARAI","2"
"HYPM_VILLAMARKET","126"
"EDUC_OTHER","2763"
"FAHN_LYN","228"
"DINN_ZEN_ON_TABLE","37"
"JWLR_BETTERVISION","337"
"DINN_SANTAFESTEAK","249"
"HTEL_AMARI","31"
"AIRL_AMERICAN","41"
"KIDS_ALPHAKID","6"
"ONLN_AIRPAY","5"
"DINN_YUU_JANG","2"
"TLCM_AIS","19"
"BEAU_WEFITNESS","420"
"TRVL_BOOKING","154"
"HTEL_LIMACOCO","3"
"RLST_LPN","24"
"AIRL_SWISSAIR","34"
"TRVL_QUALITY","5"
"INSR_CHUBB","184"
"HYPM_BIGC","1292"
"HTEL_HOLIDAYINN","113"
"FAHN_CHAPS","105"
"DINN_YUU_UPTOYUU","3"
"TRVL_STDELUXE","5"
"DINN_OTHER","24397"
"FAHN_OTHER","23095"
"FUND_PHATRA","35"
"DRUG_PHARMAX","24"
"AIRL_MALAYSLAN","17"
"BEAU_HEALTHLAND","25"
"TRVL_SIXSTAR","6"
"TRVL_HIS","33"
"BEAU_ABSOLUTE_HEALTH","7"
"BEAU_OTHER","7320"
"HYPM_TESCO","3616"
"DINN_AUBONPAIN","176"
"HSPT_SYNPHAET","11"
"HSHL_VERASU","66"
"DINN_POMODORO_AMICI","3"
"FAHN_PRADA","46"
"HSPT_PHYATHAI2","6"
"RLST_SANSIRI","19"
"HSPT_PHYATHAI3","6"
"ELCT_DTAC","1300"
"ATMB_COCKPIT","101"
"INSR_BANGKOK LIFE","76"
"DINN_HONMONO","23"
"KIDS_TAMASHII_ERA","4"
"FAHN_BOYY","2"
"HSPT_TAKSON","2"
"DINN_ICHITAN_ZAABELI","1"
"ELCT_AIS","1699"
"TRVL_OTHER","2568"
"HYPM_CP","332"
"FAHN_BATA","448"
"DINN_COFFEEBEANSDAO","34"
"ATMB_LEXUS","6"
"DINN_BURGERKING","136"
"DINN_DINTAIFUNG","15"
"DPTM_DIANA","20"
"AIRL_GARUDA","7"
"ATMB_TYREPLUS","10"
"TRVL_GM","2"
"RLST_MAJOR","3"
"PTRL_SHELL","1397"
"INSR_CIGNA","41"
"HSPT_NAKORNTHON","11"
"HSPT_SAMITIVEJTHONBURI","5"
"DPTM_LAMPANGSERI","3"
"DINN_SANDP","2"
"DPTM_VOGUE","4"
"PTRL_BANGCHAK","1935"
"STNR_OFFICEMATE","191"
"DINN_SIZZLER","149"
"ELCT_JIB","267"
"DINN_ZEN_AKA","40"
"DPTM_TOKYU","18"
"TRVL_MAJESTIC","2"
"CSMT_UNICITY","19"
"ATMB_AUTOBOY","12"
"HSPT_PATTAYAMEMORIAL","1"
"DINN_YUU_UPTOU","2"
"KIDS_MODELS_WH","1"
"DPTM_ROBINSON","174"
"AIRL_NOKAIR","4437"
"DRUG_TSURUHA","43"
"DINN_BUA","23"
"DPTM_EMPORIUM","7"
"BEAU_VIRGINACTIVE","2251"
"ONLN_LAZADA","12"
"HTEL_PLAZAATHENEE","3"
"INSR_ACS","3"
"DINN_ZEN_GYU_GRILL","2"
"ATMB_OTHER","9075"
"CSMT_GIFFARINE","202"
"INSR_OTHER","9909"
"HSHL_HOMEWORK","99"
"FAHN_CHARLESKEITH","149"
"FUND_KSAM","29"
"DINN_HUASENGHONG","93"
"INSR_KRUNGTHAIAXA","257"
"JWLR_OPTICSQUARE","38"
"HSPT_SUKHUMVIT","5"
"HSHL_POWERMALL","10"
"TRVL_TRAVELOKA","5"
"PTRL_ESSO","759"
"HYPM_WATSON","1207"
"DINN_SUKISHI_SEOULGRILL","8"
"INSR_AASIA","4"
"AIRL_LUFTHANSA","101"
"TRVL_EIGHTSEVEN","2"
"HSPT_PHYATHAI1","6"
"FAHN_CCOO","107"
"HSPT_PHYATHAISRIRACHA","4"
"HSPL_SF","327"
"HTEL_PENINSULA","9"
"DINN_OISHI_NIKUYA","19"
"DPTM_NASASHOP","3"
"HSPT_BANGPO","7"
"AIRL_EVAAIR","165"
"HSPT_BANGNA","6"
"RLST_LANDANDHOUSE","9"
"HSHL_GRANDHOMEMART","10"
"DINN_SAMYANSEAFOOD","4"
"KIDS_HAPPY_CONSOLE","1"
"HSPL_MAJOR","430"
"DPTM_TANGHUASENG","13"
"ATMB_NISSAN","234"
"DINN_LEECAFE","19"
"CSMT_HERBALLIFE","10"
"DINN_VIETCUISINE","20"
"INSR_BUPA","21"
"JWLR_TAGHEUER","9"
"HSPT_RAMKHAMHAENG","10"
"HSPT_RANGSIT","4"
"DINN_YUU_REST","3"
"DINN_MKSUKI","1771"
"PTRL_PT","2538"
"DPTM_FAIRYPLAZA","3"
"ELCT_ISTUDIO","59"
"BEAU_WUTTISAK","151"
"DINN_HOTPOT","260"
"FAHN_ICC","34"
"INSR_NEWHAMPSHIRES","23"
"HSPT_STLOUIS","8"
"DINN_CRG_YOSHINOYA","37"
"AIRL_CATHAY","289"
"CRRN_HERTZ","39"
"HTEL_ACCOR_ALLSEASON","3"
"BEAU_WONGSADA","9"
"JWLR_REGENTDIAMOND","1"
"JWLR_OTHER","7039"
"SPRT_ADIDAS","156"
"INSR_SILKSPAN","4"
"RLST_PROPERTY","35"
"RLST_SUPALAI","17"
"ATMB_MITSUBISHI","15"
"DINN_BANANALEAF","23"
"AIRL_QANTAS","28"
"DINN_TIMHOWAN","16"
"JWLR_PENDULUM","9"
"HSHL_BOONTHAVORN","108"
"CRRN_UBER","17043"
"STNR_B2S","257"
"INSR_THAILIFE","326"
"DPTM_ZEN","3"
"DPTM_CHAISAENG","2"
"DRUG_ZUELLIG","8"
"AIRL_KOREANAIR","41"
"HSPT_BANGKOK9","6"
"PTRL_PTT","4860"
"DINN_SP","584"
"AIRL_EMIRATESAIR","323"
"ONLN_SHOPEE","2"
"HSPT_SRIVICHAI","5"
"DINN_ZEN_REST","126"
"CSMT_AMWAY","178"
"DINN_LAEMCHAROEN","73"
"AIRL_ETIHADAIR","68"
"HSHL_CHICREP","12"
"ELCT_FUTUREAV","7"
"FAHN_DAPPER","30"
"PETS_DDOGDAILY","2"
"TRVL_NOOMSAO","1"
"DRUG_PETCHARAT","11"
"DINN_SUSHIHANA","29"
"DRUG_OTHER","2308"
"JWLR_AURORA","210"
"CSMT_UNILEVER","55"
"FAHN_OCC","12"
"DINN_OISHI_DELIVERY","4"
"FAHN_KTOPTIC","4"
"FAHN_GUESS","32"
"ELCT_ITCITY","198"
"DINN_JEFFERSTEK","156"
"DINN_PIZZAHUT","159"
"INSR_SOUTHEASTLIFE","24"
"HSHL_IKEA","15"
"HTEL_PRINCE","12"
"HSPT_SAMITIVEJ","13"
"DINN_13_COIN","11"
"HSPT_PRARAM9","10"
"FUND_OTHER","15"
"HYPM_HOMEFRESHMART","39"
"FAHN_TOPCHAROEN","1123"
"DRUG_PANDF","136"
"CRRN_WORLDCLASS","36"
"BEAU_PUEWDEE","13"
"AIRL_CHINA","61"
"HTEL_EVASON","3"
"FUND_ABERDEEN","1"
"HYPM_TOPS","578"
"CRRN_OTHER","1182"
"ATMB_MILLENNIUM","23"
"BEAU_PAN","136"
"FAHN_HISHER","98"
"FAHN_FNFACTORY","29"
"CRRN_SIXT","15"
"ELCT_IMOBILE","37"
"HSPT_SIRIRAJ","21"
"HSPT_RATTANATIBETH","3"
"KIDS_PHANTOM","2"
"DPTM_FRIDAY","7"
"HSPT_BAANBOUNG","4"
"DINN_SWENSENS","588"
"JWLR_TIMEDECO","16"
"BEAU_SIAMLASER","36"
"RLST_PRUKSA","36"
"AIRL_SINGAPOREAIR","54"
"RLST_GRANDUNITY","6"
"PTRL_OTHER","3400"
"FAHN_JASPAL","127"
"DINN_BANKLANGNAM","9"
"HSHL_AMORN","145"
"DINN_SUKISHI_BUFFET","51"
"INSR_PRUDENTIAL","99"
"AIRL_LION","643"
"ELCT_JAYMART","264"
"TRVL_ONEWORLD","3"
"HTEL_BANYANTREE","11"
"UTLT_COUNTER","4"
"HSPT_THONBURI","38"
"HSHL_HOMEPRO","344"
"AIRL_TIGER","41"
"DINN_OISHI_GROUP","12"
"DUTY_OTHER","754"
"HSPT_RAMATHIBODI","8"
"CSMT_JEUNESSE","13"
"JWLR_HUASENGHENG","18"
"HSPT_KRUNGSIAM","4"
"FAHN_HERMES","2"
"HTEL_OTHER","11078"
"HSHL_OTHER","9254"
"HSHL_SIAMGLOBAL","248"
"TLCM_DTAC","267"
"FAHN_ZARA","250"
"FAHN_AIIZ","181"
"HTEL_ACCOR_MERCURE","73"
"HSPT_MISSION","3"
"HTEL_ASARA","3"
"FAHN_UNIQLO","204"
"INSR_TOKIOMARINE","1786"
"JWLR_EYELAB","69"
"DINN_KUMPOON","15"
"DINN_TOHKAI","42"
"HSPT_VICHAIYUT","8"
"JWLR_AUDEMARS","2"
"STNR_LOFT","15"
"DPTM_INFINITE","5"
"INSR_AIA","23706"
"ONLN_11STREET","10"
"ONLN_ALIEXPRESS","43"
"HYPM_MAXVALUE","210"
"HSHL_DOHOME","49"
"KIDS_OTHER","1640"
"JWLR_JUBILEE","32"
"HSHL_SB","53"
"DINN_YAMAGOYA","15"
"HTEL_ACCOR_NOVOTEL","93"
"HSPT_CHAOPHYA","8"
"DINN_SPAGHETTI","8"
"HSPT_CHULARAT","21"
"DINN_CHOKCHAI","12"
"HSHL_OMAZZ","7"
"ATMB_BMW","7"
"CSMT_JAELENG","4"
"DINN_FUJI","494"
"TRVL_EXPEDIA","2558"
"DPTM_CENTRAL","163"
"CSMT_EVEANDBOY","22"
"HTEL_ALEETA","4"
"AIRL_UNITEDAIR","82"
"UTLT_MWA","2"
"ELCT_OTHER","9763"
"HSPT_YANHEE","13"
"FAHN_COACH","139"
"ELCT_HARDWAREHOUSE","40"
"JWLR_SWAROVSKI","15"
"FAHN_WONDERFUL","2"
"DPTM_TAVEEKIJ","2"
"DPTM_SERIDEPT","1"
"SPRT_THENORTHFACE","20"
"AIRL_BANGKOKAIR","1333"
"SLMM_OTHER","114"
"HTEL_RENAISSANCE","27"
"HTEL_SHERATON","50"
"DINN_OISHI_KAKASHI","9"
"JWLR_PRIMAGOLD","19"
