"MERCHANT_GROUP","COUNT(*)"
"HSPT_BANGKOK","111"
"DINN_BOONTONGKEE","14"
"AIRL_THAIAIRWAYS","163"
"FAHN_KIPLING","44"
"AIRL_ANAJAPAN","90"
"FAHN_LACOSTE","48"
"DINN_OISHI_GRAND","3"
"TLCM_OTHER","1032"
"CSMT_SEPHORA","97"
"DINN_OISHI_SHABUSHI","136"
"DINN_CRG_PEPPERLUNCH","64"
"INSR_MANULIFE","374"
"CRRN_GRAB","10"
"DPTM_FAIRYLAND","4"
"DINN_DAIDOMON","9"
"DINN_BONCHON","84"
"HYPM_FOODLAND","60"
"HTEL_DUSIT","60"
"DINN_TALINGPLING","15"
"HTEL_VERANDA","23"
"BEAU_NITIPOL","186"
"DINN_SAVOEY","35"
"INSR_SCB","50"
"DPTM_CHUMPHONOCEAN","11"
"HSHL_MODERNFORM","16"
"DINN_BARBQPLAZA","264"
"HTEL_ACCOR_PULLMAN","33"
"ELCT_POWERBUY","179"
"INSR_SYNMUNKONG","193"
"AIRL_QATARAIR","92"
"DPTM_KLANGPLAZA","11"
"PETS_PKPETMART","3"
"UTLT_MEA","4"
"ONLN_GOOGLE","4313"
"CSMT_NUSKIN","44"
"AIRL_JAPANAIR","103"
"SPRT_DECATHLON","23"
"INSR_THAIVIVAT","22"
"AIRL_JETSTARAIR","252"
"HTEL_HARDROCK","10"
"DINN_KIMJU","17"
"AIRL_CANADA","26"
"ATMB_CHEVROLET","24"
"DPTM_PARAGON","14"
"HSHL_INDEX","102"
"HYPM_BOOTS","701"
"PETS_MALETKHAOPET","8"
"DINN_TEXASSUKI","9"
"HSPT_BANGPAKOK","24"
"INSR_ALIFE","5"
"ELCT_BANANAIT","75"
"SPRT_OTHER","2056"
"DINN_NARAIPIZZARIA","41"
"INSR_SCILIFE","406"
"DINN_SAKURA","12"
"CRRN_KRUNGTHAI","4"
"DINN_KALAPRAPRUEK","2"
"KIDS_PHUKET_SANUK","3"
"PETS_ROYALCANIN","1"
"DINN_KFC","7"
"DINN_THEPIZZA","375"
"INSR_BANGKOKINSURANCE","91"
"DINN_MCDONALD","454"
"RLST_AP","32"
"HSPT_VIBHARAM","15"
"DINN_POMODORO_GUSTOSO","3"
"HTEL_CENTARA","87"
"HSPT_BANGKOKCHRISTIAN","9"
"AIRL_AIRASIA","18439"
"DINN_SUSHIMASA","6"
"BEAU_APEX","33"
"TRVL_AGODA","15"
"DINN_ICHITAN_MELTME","11"
"AIRL_PHILIPPINE","19"
"DINN_FOURSEASONS","21"
"HSPT_LADPRAO","8"
"ELCT_CAMERAWORLD","60"
"AIRL_FRANCE","69"
"HSPT_VIBHAVADI","8"
"FAHN_MANGO","76"
"DRUG_ICAREHEALTH","47"
"INSR_DHIPAYA","62"
"TRVL_CHAIRAK","13"
"FAHN_BOSSINI","41"
"AIRL_DUTCH","66"
"DINN_SANSAB","16"
"TRVL_WONDERFUL","4"
"ELCT_PHOTOHUT","1"
"DINN_STARBUCKS","1238"
"HYPM_OTHER","7281"
"CSMT_ORIENTAL","814"
"AIRL_OTHER","5719"
"INSR_VIRIYAH","113"
"DINN_CRG_OOTOYA","120"
"HTEL_HYATT","49"
"ELCT_BIGCAMERA","225"
"CRRN_AVIS","94"
"AIRL_DELTA","108"
"INSR_TESCO","103"
"CSMT_BODYSHOP","22"
"HSHL_HOMEHUB","17"
"ELCT_APPLE","1"
"TRVL_DISCOVERY","1"
"HSPT_NONTHAVEJ","8"
"ONLN_OMISE","263"
"TLCM_3BB","904"
"HTEL_AIRBNB","1347"
"HYPM_GOURMET","23"
"FAHN_LOUISVUITTON","8"
"FAHN_ZALORA","1"
"JWLR_PANDORA","82"
"CRRN_THAIRENT","33"
"HTEL_LERMERIDIEN","26"
"HYPM_GOLDENPLACE","24"
"DPTM_PARADISE","3"
"HSPT_BUMRUNGRAD","3"
"HSPT_KLUAYNAMTHAI","5"
"OTHR_OTHER","24322"
"DPTM_OTHER","5085"
"ATMB_MAZDA","103"
"HSPT_SAMITIVEJSRIRACHA","7"
"KIDS_TOYS_STATION","3"
"DINN_HUAPLACHONG","25"
"HSPT_HUACHIEW","7"
"HSPT_SIKARIN","6"
"DPTM_ISETON","31"
"ONLN_FACEBOOK","19956"
"HSPL_MRT","129"
"TLCM_TOT","464"
"SLMM_SLIMUP","17"
"HSHL_KONCEPT","3"
"KIDS_BALL_BALL","1"
"PETS_OTHER","1979"
"INSR_AIG","22"
"HTEL_HILTON","95"
"HYPM_711","5244"
"DINN_OISHI_EXPRESS","7"
"HSPT_CHIANGMAIRAM","8"
"DINN_CRG_CHABUTON","51"
"HSPT_SAMITIVEJSRINAKARIN","6"
"BEAU_ROMRAWIN","42"
"INSR_THAIOCEAN","70"
"ATMB_AAS","2"
"DPTM_KANOCKAN","8"
"ONLN_BLUEPAY","3"
"CSMT_KARMART","35"
"ATMB_SUZUKI","48"
"HSPT_VEJTHANI","6"
"INSR_THAIINSURANCE","452"
"DINN_DAKGALBI","26"
"BEAU_PORNKASEM","65"
"HTEL_ACCOR_SOFITEL","41"
"BEAU_PRUKSA","49"
"DINN_SCOOZI","34"
"HSPT_SIKARINHATYAI","1"
"ONLN_PAYPAL","5768"
"PETS_THONGLORPET","46"
"INSR_TQM","11"
"INSR_ASIA","24"
"BEAU_SPARSHA","48"
"HSPT_CHULA","14"
"CRRN_BUDGET","5"
"ONLN_WEMALL","4"
"TRVL_FOREVER","2"
"TRVL_CHEAPTICKET","2"
"HSPT_PAOLO","26"
"CSMT_CUTEPRESS","334"
"HSPL_BTS","109"
"HSHL_MEGAHOME","32"
"HSPT_THAINAKARIN","5"
"RLST_ANANDA","17"
"INSR_MUANGTHAILIFE","3471"
"TRVL_SBA","4"
"KIDS_KIDZUKA","4"
"FUND_MFC","2"
"DINN_SEEFAH","65"
"HSPL_THAITICKET","16"
"DPTM_SERMTHAICOMPLEX","6"
"DINN_CRG_TERRACE","39"
"HSHL_HAFELE","6"
"DPTM_CENTRALWORLD","1"
"DINN_KASAJAPANESE","34"
"HSPL_OTHER","1590"
"DINN_BLACKCANYON","413"
"ATMB_BQUIK","421"
"CSMT_OTHER","3671"
"INSR_FWD","71"
"HTEL_MARIOTT","116"
"BEAU_KLINIQUE","43"
"INSR_AACP","562"
"DINN_DEANDELUCA","33"
"FAHN_BOTTEGA","6"
"FAHN_CHANEL","5"
"DPTM_KADKAM","1"
"SPRT_FBT","17"
"FAHN_OPTICAL88","77"
"JWLR_MODERNOPTICAL","18"
"DINN_YUMSAAP","92"
"KIDS_NADZ_PROJECT","6"
"PTRL_CALTEX","14"
"SPRT_SUPERSPORT","416"
"INSR_GENERALI","72"
"ATMB_TOYOTA","967"
"ATMB_HONDA","628"
"RLST_OTHER","1830"
"DINN_HONGMIN","20"
"SPRT_SPORTWORLD","62"
"DINN_OISHI_RAMEN","10"
"ELCT_ADVICE","90"
"DINN_COCO_ICHIBAN","13"
"DINN_CRG_COLDSTONE","29"
"KIDS_KIDDO_PACIFIC","3"
"FUND_KTAM","1"
"KIDS_TOYRUS","43"
"FAHN_HANDM","209"
"DINN_COCA","49"
"TLCM_CAT","157"
"DINN_SUKISHI_BBQ","19"
"HSPT_KASEMRAD","28"
"HSHL_CPAC","5"
"INSR_THANACHARTLIFE","15"
"DPTM_EMQUARTIER","7"
"ATMB_ISUZU","301"
"BEAU_FITNESSFIRST","190"
"HSPT_BNH","7"
"DINN_LITTLEHOME","15"
"JWLR_CITYCHAIN","26"
"KIDS_ROCKINGKIDS","2"
"HSPT_OTHER","1016"
"DPTM_THEMALL","68"
"ATMB_FORD","47"
"HTEL_SIAMKEMPINSKI","2"
"HSPT_BANGMOD","4"
"TRVL_CHARAL","7"
"CRRN_RENTALCARS","11"
"DPTM_SERMTHAIPLAZA","2"
"DINN_YAYOI","183"
"TLCM_TRUE","16321"
"AIRL_THAISMILES","434"
"FAHN_LEVI","96"
"INSR_MUANGTHAIINS","19"
"INSR_SIAMSAMSUNG","22"
"PETS_DOCTORNOK","3"
"BEAU_RAJDHEVEE","106"
"HTEL_ACCOR_IBIS","119"
"HTEL_INTERCONTINENTAL","23"
"FUND_LANDNHOUSE","1"
"ATMB_BRIDGESTONE","198"
"DRUG_GNC","42"
"AIRL_BRITISHAIR","66"
"JWLR_MAETHONGSUK","7"
"ONLN_ITUNE","7"
"AIRL_NEWZEALAND","6"
"HSPT_PIYAVATE","6"
"DINN_NITTAYAKAI","28"
"ELCT_TRUE","1032"
"DUTY_KINGPOWER","95"
"CSMT_BEAUTYBUFFET","355"
"HTEL_ANANTARA","41"
"DRUG_FASCINO","152"
"DINN_GOODVIEW","16"
"RLST_NARAI","4"
"INSR_CHAOPRAYA","4"
"DINN_ZEN_ON_TABLE","50"
"HYPM_VILLAMARKET","127"
"EDUC_OTHER","2891"
"DINN_SANTAFESTEAK","268"
"JWLR_BETTERVISION","336"
"FAHN_LYN","227"
"KIDS_ALPHAKID","9"
"HTEL_AMARI","36"
"ONLN_AIRPAY","9"
"AIRL_AMERICAN","89"
"DINN_YUU_JANG","2"
"BEAU_WEFITNESS","401"
"TLCM_AIS","18"
"TRVL_BOOKING","246"
"RLST_LPN","27"
"HTEL_LIMACOCO","6"
"AIRL_SWISSAIR","46"
"TRVL_QUALITY","7"
"HYPM_BIGC","1372"
"INSR_CHUBB","181"
"HTEL_HOLIDAYINN","154"
"FAHN_CHAPS","114"
"DINN_YUU_UPTOYUU","4"
"TRVL_STDELUXE","2"
"DINN_OTHER","26918"
"FAHN_OTHER","22984"
"FUND_PHATRA","27"
"DRUG_PHARMAX","23"
"BEAU_HEALTHLAND","52"
"TRVL_SIXSTAR","5"
"AIRL_MALAYSLAN","30"
"BEAU_ABSOLUTE_HEALTH","11"
"TRVL_HIS","14"
"BEAU_OTHER","7804"
"HYPM_TESCO","3534"
"HSPT_SYNPHAET","12"
"DINN_AUBONPAIN","165"
"HSPT_PHYATHAI2","6"
"HSHL_VERASU","56"
"DINN_POMODORO_AMICI","2"
"FAHN_PRADA","47"
"HSPT_PHYATHAI3","6"
"RLST_SANSIRI","13"
"ELCT_DTAC","1250"
"DINN_HONMONO","18"
"INSR_BANGKOK LIFE","63"
"ATMB_COCKPIT","100"
"KIDS_TAMASHII_ERA","3"
"FAHN_BOYY","5"
"HSPT_TAKSON","2"
"DINN_ICHITAN_ZAABELI","1"
"DINN_YUU_ANDFRIEND","3"
"ELCT_AIS","1697"
"TRVL_OTHER","2907"
"HYPM_CP","384"
"FAHN_BATA","429"
"DINN_COFFEEBEANSDAO","31"
"DINN_BURGERKING","142"
"ATMB_TYREPLUS","8"
"ATMB_LEXUS","3"
"DINN_DINTAIFUNG","29"
"DPTM_DIANA","20"
"AIRL_GARUDA","9"
"RLST_MAJOR","5"
"TRVL_GM","3"
"PTRL_SHELL","1434"
"INSR_CIGNA","42"
"HSPT_NAKORNTHON","11"
"HSPT_SAMITIVEJTHONBURI","5"
"DPTM_LAMPANGSERI","3"
"DINN_SANDP","2"
"DPTM_VOGUE","4"
"PTRL_BANGCHAK","2013"
"ELCT_JIB","301"
"DINN_SIZZLER","152"
"STNR_OFFICEMATE","196"
"DINN_ZEN_AKA","48"
"DPTM_TOKYU","19"
"CSMT_UNICITY","21"
"TRVL_MAJESTIC","2"
"HSPT_PATTAYAMEMORIAL","2"
"ATMB_AUTOBOY","12"
"KIDS_MODELS_WH","1"
"DINN_YUU_UPTOU","2"
"DPTM_ROBINSON","180"
"DRUG_TSURUHA","42"
"BEAU_VIRGINACTIVE","3313"
"AIRL_NOKAIR","3963"
"DPTM_EMPORIUM","9"
"DINN_BUA","25"
"ONLN_LAZADA","13"
"HTEL_PLAZAATHENEE","2"
"INSR_ACS","2"
"DINN_ZEN_GYU_GRILL","2"
"HSHL_HOMEWORK","112"
"DINN_HUASENGHONG","118"
"FUND_KSAM","28"
"ATMB_OTHER","9285"
"INSR_OTHER","9655"
"FAHN_CHARLESKEITH","163"
"CSMT_GIFFARINE","201"
"JWLR_OPTICSQUARE","38"
"INSR_KRUNGTHAIAXA","241"
"HSPT_SUKHUMVIT","5"
"TRVL_TRAVELOKA","8"
"HSHL_POWERMALL","12"
"PTRL_ESSO","804"
"HYPM_WATSON","1307"
"AIRL_LUFTHANSA","133"
"TRVL_EIGHTSEVEN","2"
"DINN_SUKISHI_SEOULGRILL","2"
"HSPT_PHYATHAI1","7"
"HSPL_SF","316"
"HSPT_PHYATHAISRIRACHA","4"
"FAHN_CCOO","113"
"HTEL_PENINSULA","12"
"DINN_OISHI_NIKUYA","22"
"DPTM_NASASHOP","3"
"AIRL_EVAAIR","155"
"HSPT_BANGPO","5"
"HSHL_GRANDHOMEMART","15"
"HSPT_BANGNA","4"
"RLST_LANDANDHOUSE","9"
"DINN_SAMYANSEAFOOD","7"
"KIDS_HAPPY_CONSOLE","1"
"DINN_VIETCUISINE","21"
"DPTM_TANGHUASENG","13"
"HSPL_MAJOR","415"
"ATMB_NISSAN","246"
"HSPT_RAMKHAMHAENG","9"
"JWLR_TAGHEUER","7"
"DINN_LEECAFE","22"
"CSMT_HERBALLIFE","18"
"HSPT_RANGSIT","5"
"DINN_YUU_REST","3"
"PTRL_PT","2788"
"FAHN_ICC","34"
"DINN_MKSUKI","1882"
"DPTM_FAIRYPLAZA","2"
"DINN_HOTPOT","254"
"AIRL_CATHAY","271"
"HSPT_STLOUIS","9"
"DINN_CRG_YOSHINOYA","47"
"BEAU_WUTTISAK","147"
"ELCT_ISTUDIO","42"
"CRRN_HERTZ","47"
"INSR_NEWHAMPSHIRES","25"
"BEAU_WONGSADA","11"
"HTEL_ACCOR_ALLSEASON","1"
"JWLR_REGENTDIAMOND","7"
"JWLR_OTHER","6957"
"SPRT_ADIDAS","166"
"DINN_BANANALEAF","21"
"RLST_PROPERTY","44"
"RLST_SUPALAI","15"
"INSR_SILKSPAN","4"
"DINN_TIMHOWAN","16"
"ATMB_MITSUBISHI","15"
"AIRL_QANTAS","23"
"JWLR_PENDULUM","13"
"ONLN_EASYBILLS","2"
"CRRN_UBER","19902"
"HSHL_BOONTHAVORN","103"
"STNR_B2S","276"
"DPTM_ZEN","3"
"INSR_THAILIFE","328"
"DPTM_CHAISAENG","2"
"AIRL_KOREANAIR","75"
"DRUG_ZUELLIG","9"
"HSPT_BANGKOK9","7"
"PTRL_PTT","5073"
"DINN_SP","570"
"AIRL_EMIRATESAIR","294"
"ONLN_SHOPEE","2"
"HSPT_SRIVICHAI","3"
"TRVL_KSS","1"
"DINN_ZEN_REST","120"
"CSMT_AMWAY","176"
"DINN_LAEMCHAROEN","83"
"HSHL_CHICREP","16"
"AIRL_ETIHADAIR","146"
"FAHN_DAPPER","22"
"PETS_DDOGDAILY","2"
"ELCT_FUTUREAV","7"
"DRUG_PETCHARAT","11"
"TRVL_NOOMSAO","1"
"DRUG_OTHER","2505"
"JWLR_AURORA","211"
"CSMT_UNILEVER","48"
"FAHN_OCC","14"
"DINN_SUSHIHANA","29"
"FAHN_KTOPTIC","9"
"DINN_OISHI_DELIVERY","4"
"ELCT_ITCITY","190"
"FAHN_GUESS","37"
"HSHL_IKEA","25"
"DINN_JEFFERSTEK","157"
"HSPT_SAMITIVEJ","17"
"HTEL_PRINCE","14"
"INSR_SOUTHEASTLIFE","25"
"DINN_PIZZAHUT","179"
"DINN_13_COIN","10"
"CRRN_WORLDCLASS","41"
"HSPT_PRARAM9","11"
"FUND_OTHER","15"
"HYPM_HOMEFRESHMART","38"
"FAHN_TOPCHAROEN","1238"
"DRUG_PANDF","133"
"HTEL_EVASON","3"
"AIRL_CHINA","71"
"BEAU_PUEWDEE","10"
"FUND_ABERDEEN","1"
"HYPM_TOPS","617"
"CRRN_OTHER","1360"
"BEAU_PAN","120"
"FAHN_FNFACTORY","37"
"ATMB_MILLENNIUM","24"
"FAHN_HISHER","81"
"ELCT_IMOBILE","31"
"HSPT_BAANBOUNG","6"
"CRRN_SIXT","7"
"HSPT_RATTANATIBETH","3"
"HSPT_SIRIRAJ","23"
"DPTM_FRIDAY","8"
"KIDS_PHANTOM","2"
"DINN_SWENSENS","718"
"AIRL_SINGAPOREAIR","164"
"JWLR_TIMEDECO","25"
"RLST_PRUKSA","41"
"BEAU_SIAMLASER","36"
"RLST_GRANDUNITY","8"
"PTRL_OTHER","3476"
"DINN_SUKISHI_BUFFET","35"
"HSHL_AMORN","143"
"INSR_PRUDENTIAL","96"
"FAHN_JASPAL","136"
"DINN_BANKLANGNAM","9"
"ELCT_JAYMART","223"
"AIRL_LION","638"
"TRVL_ONEWORLD","2"
"HTEL_BANYANTREE","12"
"UTLT_COUNTER","6"
"HSHL_HOMEPRO","357"
"DINN_OISHI_GROUP","11"
"HSPT_THONBURI","35"
"DUTY_OTHER","1122"
"HSPT_RAMATHIBODI","8"
"AIRL_TIGER","36"
"JWLR_HUASENGHENG","19"
"CSMT_JEUNESSE","9"
"HSPT_KRUNGSIAM","5"
"FAHN_HERMES","2"
"HSHL_SIAMGLOBAL","260"
"HTEL_OTHER","12286"
"FAHN_ZARA","260"
"HSHL_OTHER","9392"
"FAHN_AIIZ","195"
"HTEL_ACCOR_MERCURE","83"
"TLCM_DTAC","212"
"HSPT_MISSION","3"
"HTEL_ASARA","3"
"HTEL_JOMTIEN","3"
"FAHN_UNIQLO","203"
"JWLR_EYELAB","73"
"DINN_KUMPOON","14"
"INSR_TOKIOMARINE","1609"
"DINN_TOHKAI","40"
"HSPT_VICHAIYUT","8"
"JWLR_AUDEMARS","3"
"STNR_LOFT","15"
"DPTM_INFINITE","7"
"INSR_AIA","11474"
"ONLN_11STREET","8"
"ONLN_ALIEXPRESS","36"
"KIDS_OTHER","1971"
"HSHL_DOHOME","52"
"HYPM_MAXVALUE","219"
"HSHL_SB","43"
"JWLR_JUBILEE","28"
"HTEL_ACCOR_NOVOTEL","122"
"HSPT_CHAOPHYA","8"
"DINN_CHOKCHAI","13"
"DINN_SPAGHETTI","7"
"HSPT_CHULARAT","21"
"DINN_YAMAGOYA","15"
"ATMB_BMW","6"
"HSHL_OMAZZ","8"
"CSMT_JAELENG","4"
"CSMT_EVEANDBOY","25"
"DPTM_CENTRAL","173"
"DINN_FUJI","463"
"TRVL_EXPEDIA","2565"
"HTEL_ALEETA","7"
"AIRL_UNITEDAIR","111"
"UTLT_MWA","2"
"HSPT_YANHEE","14"
"ELCT_OTHER","9669"
"JWLR_SWAROVSKI","17"
"FAHN_COACH","131"
"ELCT_HARDWAREHOUSE","22"
"DPTM_TAVEEKIJ","3"
"DPTM_SERIDEPT","1"
"SLMM_OTHER","141"
"AIRL_BANGKOKAIR","1146"
"HTEL_RENAISSANCE","27"
"SPRT_THENORTHFACE","23"
"HTEL_SHERATON","71"
"JWLR_PRIMAGOLD","18"
"DINN_OISHI_KAKASHI","8"
