"MERCHANT_GROUP","COUNT(*)"
"AIRL_THAIAIRWAYS","146"
"HSPT_BANGKOK","107"
"DINN_BOONTONGKEE","15"
"AIRL_ANAJAPAN","106"
"FAHN_KIPLING","85"
"FAHN_LACOSTE","61"
"DINN_OISHI_GRAND","2"
"TLCM_OTHER","1044"
"DINN_OISHI_SHABUSHI","142"
"INSR_MANULIFE","319"
"DINN_CRG_PEPPERLUNCH","73"
"DPTM_FAIRYLAND","4"
"CSMT_SEPHORA","128"
"CRRN_GRAB","9"
"HYPM_FOODLAND","60"
"HTEL_DUSIT","43"
"DINN_SAVOEY","36"
"DINN_BONCHON","92"
"BEAU_NITIPOL","188"
"INSR_SCB","44"
"DINN_TALINGPLING","13"
"HTEL_VERANDA","20"
"DPTM_CHUMPHONOCEAN","11"
"HSHL_MODERNFORM","9"
"INSR_SYNMUNKONG","184"
"DINN_BARBQPLAZA","271"
"ELCT_POWERBUY","178"
"HTEL_ACCOR_PULLMAN","35"
"AIRL_QATARAIR","128"
"DPTM_KLANGPLAZA","9"
"PETS_PKPETMART","3"
"UTLT_MEA","4"
"ONLN_GOOGLE","4844"
"CSMT_NUSKIN","42"
"HTEL_HARDROCK","7"
"SPRT_DECATHLON","37"
"AIRL_JETSTARAIR","221"
"INSR_THAIVIVAT","27"
"AIRL_JAPANAIR","73"
"DINN_KIMJU","18"
"ATMB_CHEVROLET","21"
"DPTM_PARAGON","20"
"AIRL_CANADA","4"
"HSHL_INDEX","106"
"PETS_MALETKHAOPET","8"
"HYPM_BOOTS","707"
"DINN_TEXASSUKI","11"
"HSPT_BANGPAKOK","20"
"INSR_ALIFE","6"
"DINN_NARAIPIZZARIA","46"
"SPRT_OTHER","2234"
"ELCT_BANANAIT","100"
"INSR_SCILIFE","327"
"PETS_ROYALCANIN","2"
"DINN_SAKURA","16"
"DINN_KALAPRAPRUEK","3"
"CRRN_KRUNGTHAI","2"
"DINN_THEPIZZA","321"
"DINN_MCDONALD","462"
"DINN_KFC","7"
"INSR_BANGKOKINSURANCE","87"
"RLST_AP","26"
"HSPT_VIBHARAM","17"
"DINN_POMODORO_GUSTOSO","3"
"AIRL_AIRASIA","12627"
"HTEL_CENTARA","82"
"DINN_SUSHIMASA","12"
"HSPT_BANGKOKCHRISTIAN","9"
"BEAU_APEX","36"
"TRVL_AGODA","12"
"DINN_ICHITAN_MELTME","7"
"AIRL_PHILIPPINE","13"
"ELCT_CAMERAWORLD","51"
"DINN_FOURSEASONS","26"
"HSPT_LADPRAO","7"
"AIRL_FRANCE","57"
"HSPT_VIBHAVADI","10"
"INSR_DHIPAYA","57"
"FAHN_MANGO","103"
"DRUG_ICAREHEALTH","56"
"TRVL_CHAIRAK","10"
"DINN_SANSAB","14"
"FAHN_BOSSINI","25"
"AIRL_DUTCH","75"
"TRVL_WONDERFUL","5"
"ELCT_PHOTOHUT","2"
"HYPM_OTHER","8260"
"CSMT_ORIENTAL","762"
"DINN_STARBUCKS","1304"
"DINN_CRG_OOTOYA","110"
"AIRL_OTHER","5309"
"INSR_VIRIYAH","126"
"CRRN_AVIS","132"
"HTEL_HYATT","63"
"ELCT_BIGCAMERA","199"
"INSR_TESCO","120"
"HSHL_HOMEHUB","16"
"AIRL_DELTA","122"
"CSMT_BODYSHOP","14"
"DINN_OISHI_REST","1"
"ELCT_APPLE","3"
"HSPT_NONTHAVEJ","9"
"TLCM_3BB","897"
"HYPM_GOURMET","26"
"ONLN_OMISE","261"
"HTEL_AIRBNB","1077"
"FAHN_LOUISVUITTON","8"
"FAHN_ZALORA","1"
"HYPM_MAKRO","130"
"HTEL_LERMERIDIEN","30"
"HYPM_GOLDENPLACE","23"
"CRRN_THAIRENT","35"
"JWLR_PANDORA","82"
"HSPT_KLUAYNAMTHAI","8"
"DPTM_PARADISE","6"
"HSPT_BUMRUNGRAD","4"
"OTHR_OTHER","23943"
"DPTM_OTHER","5325"
"HSPT_SAMITIVEJSRIRACHA","7"
"ATMB_MAZDA","97"
"DINN_HUAPLACHONG","29"
"HSPT_HUACHIEW","9"
"KIDS_TOYS_STATION","1"
"HSPT_SIKARIN","6"
"TLCM_TOT","466"
"ONLN_FACEBOOK","20135"
"HSPL_MRT","129"
"DPTM_ISETON","33"
"HSHL_KONCEPT","5"
"SLMM_SLIMUP","20"
"PETS_OTHER","1924"
"HYPM_711","5965"
"DINN_CRG_CHABUTON","52"
"HSPT_SAMITIVEJSRINAKARIN","6"
"HSPT_CHIANGMAIRAM","10"
"BEAU_ROMRAWIN","50"
"HTEL_HILTON","107"
"INSR_AIG","22"
"INSR_THAIOCEAN","68"
"ATMB_AAS","2"
"DPTM_KANOCKAN","7"
"ONLN_BLUEPAY","3"
"BEAU_PORNKASEM","64"
"DINN_DAKGALBI","24"
"BEAU_PRUKSA","49"
"ATMB_SUZUKI","46"
"CSMT_KARMART","31"
"HSPT_VEJTHANI","7"
"INSR_THAIINSURANCE","399"
"DINN_SCOOZI","30"
"HTEL_ACCOR_SOFITEL","38"
"HSPT_SIKARINHATYAI","1"
"ONLN_PAYPAL","5653"
"INSR_TQM","12"
"CRRN_BUDGET","24"
"PETS_THONGLORPET","39"
"BEAU_SPARSHA","35"
"INSR_ASIA","21"
"HSPT_CHULA","17"
"ONLN_WEMALL","2"
"DINN_OISHI_KAZOKUTEI","3"
"TRVL_CHEAPTICKET","2"
"HSPT_PAOLO","30"
"HSPL_BTS","110"
"HSHL_MEGAHOME","33"
"INSR_MUANGTHAILIFE","3014"
"HSPT_THAINAKARIN","5"
"CSMT_CUTEPRESS","331"
"RLST_ANANDA","12"
"FUND_MFC","1"
"KIDS_KIDZUKA","2"
"TRVL_SBA","1"
"HSPL_THAITICKET","40"
"DINN_SEEFAH","70"
"DPTM_SERMTHAICOMPLEX","6"
"DINN_CRG_TERRACE","44"
"HSHL_HAFELE","6"
"SLMM_MARIEFRANCE","1"
"ATMB_BQUIK","455"
"DINN_DEANDELUCA","38"
"CSMT_OTHER","3610"
"HTEL_MARIOTT","109"
"DINN_BLACKCANYON","367"
"HSPL_OTHER","1474"
"INSR_FWD","76"
"DINN_KASAJAPANESE","35"
"INSR_AACP","459"
"BEAU_KLINIQUE","40"
"DPTM_KADKAM","2"
"FAHN_BOTTEGA","4"
"FAHN_CHANEL","5"
"SPRT_FBT","16"
"DINN_YUMSAAP","91"
"FAHN_OPTICAL88","73"
"KIDS_NADZ_PROJECT","7"
"JWLR_MODERNOPTICAL","20"
"PTRL_CALTEX","18"
"SPRT_SPORTWORLD","30"
"SPRT_SUPERSPORT","395"
"INSR_GENERALI","58"
"ATMB_HONDA","601"
"ATMB_TOYOTA","953"
"RLST_OTHER","1717"
"DINN_OISHI_RAMEN","10"
"ELCT_ADVICE","100"
"DINN_HONGMIN","19"
"DINN_CRG_COLDSTONE","40"
"DINN_COCO_ICHIBAN","11"
"KIDS_KIDDO_PACIFIC","3"
"FUND_KTAM","1"
"TLCM_CAT","158"
"FAHN_HANDM","239"
"HSPT_KASEMRAD","31"
"DINN_COCA","41"
"KIDS_TOYRUS","38"
"INSR_THANACHARTLIFE","15"
"DINN_SUKISHI_BBQ","11"
"HSHL_CPAC","6"
"DPTM_EMQUARTIER","7"
"BEAU_FITNESSFIRST","157"
"ATMB_ISUZU","267"
"HSPT_BNH","6"
"DINN_LITTLEHOME","17"
"JWLR_CITYCHAIN","17"
"KIDS_ROCKINGKIDS","5"
"HSPT_OTHER","1020"
"DPTM_THEMALL","78"
"ATMB_FORD","35"
"HSPT_BANGMOD","4"
"HTEL_SIAMKEMPINSKI","2"
"CRRN_RENTALCARS","11"
"TRVL_CHARAL","8"
"DPTM_SERMTHAIPLAZA","1"
"INSR_SIAMSAMSUNG","18"
"AIRL_THAISMILES","239"
"DINN_YAYOI","251"
"HTEL_ACCOR_IBIS","108"
"TLCM_TRUE","15514"
"BEAU_RAJDHEVEE","107"
"PETS_DOCTORNOK","4"
"HTEL_INTERCONTINENTAL","23"
"FAHN_LEVI","135"
"INSR_MUANGTHAIINS","26"
"FUND_LANDNHOUSE","1"
"ONLN_ITUNE","8"
"ATMB_BRIDGESTONE","201"
"JWLR_MAETHONGSUK","7"
"AIRL_BRITISHAIR","80"
"DRUG_GNC","37"
"HSPT_PIYAVATE","6"
"AIRL_NEWZEALAND","4"
"ELCT_TRUE","996"
"DRUG_FASCINO","154"
"DUTY_KINGPOWER","84"
"HTEL_ANANTARA","35"
"CSMT_BEAUTYBUFFET","328"
"DINN_NITTAYAKAI","30"
"DINN_GOODVIEW","18"
"RLST_NARAI","2"
"HYPM_VILLAMARKET","135"
"EDUC_OTHER","2577"
"ONLN_AIRPAY","6"
"FAHN_LYN","269"
"DINN_SANTAFESTEAK","280"
"JWLR_BETTERVISION","330"
"DINN_ZEN_ON_TABLE","35"
"AIRL_AMERICAN","65"
"HTEL_AMARI","36"
"KIDS_ALPHAKID","5"
"DINN_YUU_JANG","2"
"TLCM_AIS","28"
"BEAU_WEFITNESS","341"
"TRVL_BOOKING","213"
"RLST_LPN","28"
"AIRL_SWISSAIR","53"
"HTEL_LIMACOCO","3"
"FAHN_CHAPS","126"
"HYPM_BIGC","1496"
"INSR_CHUBB","192"
"HTEL_HOLIDAYINN","134"
"TRVL_STDELUXE","5"
"DINN_YUU_UPTOYUU","6"
"DINN_OTHER","29624"
"FAHN_OTHER","23880"
"DRUG_PHARMAX","20"
"FUND_PHATRA","27"
"BEAU_HEALTHLAND","46"
"BEAU_ABSOLUTE_HEALTH","11"
"AIRL_MALAYSLAN","148"
"TRVL_SIXSTAR","5"
"TRVL_HIS","10"
"HYPM_TESCO","3775"
"BEAU_OTHER","7920"
"HSHL_VERASU","81"
"DINN_AUBONPAIN","184"
"HSPT_PHYATHAI2","6"
"HSPT_SYNPHAET","12"
"HSPT_PHYATHAI3","6"
"FAHN_PRADA","57"
"DINN_POMODORO_AMICI","3"
"RLST_SANSIRI","11"
"ELCT_DTAC","1232"
"ATMB_COCKPIT","90"
"INSR_BANGKOK LIFE","63"
"DINN_HONMONO","21"
"DINN_ICHITAN_ZAABELI","10"
"KIDS_TAMASHII_ERA","2"
"FAHN_BOYY","3"
"HSPT_TAKSON","2"
"TRVL_OTHER","2394"
"DINN_COFFEEBEANSDAO","36"
"ELCT_AIS","1732"
"DINN_BURGERKING","152"
"FAHN_BATA","446"
"HYPM_CP","399"
"ATMB_LEXUS","5"
"DPTM_DIANA","20"
"ATMB_TYREPLUS","12"
"AIRL_GARUDA","5"
"DINN_DINTAIFUNG","29"
"RLST_MAJOR","3"
"PTRL_SHELL","1436"
"INSR_CIGNA","42"
"HSPT_NAKORNTHON","11"
"HSPT_SAMITIVEJTHONBURI","5"
"DPTM_LAMPANGSERI","3"
"DINN_SANDP","2"
"DPTM_VOGUE","4"
"PTRL_BANGCHAK","2111"
"STNR_OFFICEMATE","195"
"ELCT_JIB","292"
"DINN_SIZZLER","155"
"DINN_ZEN_AKA","35"
"DPTM_TOKYU","24"
"HSPT_PATTAYAMEMORIAL","3"
"ATMB_AUTOBOY","13"
"CSMT_UNICITY","18"
"TRVL_MAJESTIC","2"
"KIDS_MODELS_WH","1"
"DINN_YUU_UPTOU","1"
"DPTM_ROBINSON","180"
"AIRL_NOKAIR","3092"
"DRUG_TSURUHA","41"
"BEAU_VIRGINACTIVE","2097"
"DPTM_EMPORIUM","10"
"DINN_BUA","17"
"ONLN_LAZADA","11"
"HTEL_PLAZAATHENEE","3"
"INSR_ACS","2"
"DINN_ZEN_GYU_GRILL","2"
"INSR_OTHER","8586"
"ATMB_OTHER","8724"
"TRVL_TRAVELOKA","17830"
"HSHL_HOMEWORK","108"
"FAHN_CHARLESKEITH","181"
"CSMT_GIFFARINE","206"
"INSR_KRUNGTHAIAXA","229"
"DINN_HUASENGHONG","136"
"JWLR_OPTICSQUARE","43"
"FUND_KSAM","28"
"HSHL_POWERMALL","15"
"HSPT_SUKHUMVIT","3"
"PTRL_ESSO","845"
"HYPM_WATSON","1328"
"AIRL_LUFTHANSA","179"
"DINN_SUKISHI_SEOULGRILL","1"
"HSPT_PHYATHAI1","6"
"FAHN_CCOO","126"
"HSPT_PHYATHAISRIRACHA","5"
"HSPL_SF","391"
"HSPT_BANGPO","4"
"HTEL_PENINSULA","9"
"DINN_OISHI_NIKUYA","22"
"AIRL_EVAAIR","149"
"HSHL_GRANDHOMEMART","12"
"HSPT_BANGNA","5"
"KIDS_HAPPY_CONSOLE","3"
"DINN_SAMYANSEAFOOD","4"
"RLST_LANDANDHOUSE","8"
"DPTM_NASASHOP","2"
"HSPL_MAJOR","436"
"DINN_VIETCUISINE","22"
"DPTM_TANGHUASENG","14"
"JWLR_TAGHEUER","10"
"DINN_LEECAFE","19"
"ATMB_NISSAN","214"
"HSPT_RAMKHAMHAENG","9"
"CSMT_HERBALLIFE","14"
"HSPT_RANGSIT","4"
"DINN_YUU_REST","3"
"DINN_MKSUKI","1918"
"PTRL_PT","3052"
"ELCT_ISTUDIO","44"
"FAHN_ICC","40"
"DPTM_FAIRYPLAZA","2"
"BEAU_WUTTISAK","94"
"INSR_NEWHAMPSHIRES","23"
"BEAU_WONGSADA","8"
"DINN_CRG_YOSHINOYA","49"
"AIRL_CATHAY","228"
"HSPT_STLOUIS","8"
"CRRN_HERTZ","57"
"HTEL_ACCOR_ALLSEASON","1"
"DINN_HOTPOT","4"
"JWLR_REGENTDIAMOND","4"
"SPRT_ADIDAS","172"
"JWLR_OTHER","6580"
"DINN_BANANALEAF","24"
"INSR_SILKSPAN","4"
"RLST_PROPERTY","38"
"DINN_TIMHOWAN","15"
"ATMB_MITSUBISHI","15"
"RLST_SUPALAI","21"
"AIRL_QANTAS","30"
"JWLR_PENDULUM","6"
"ONLN_EASYBILLS","2"
"STNR_B2S","283"
"HSHL_BOONTHAVORN","99"
"INSR_THAILIFE","317"
"DPTM_ZEN","3"
"AIRL_KOREANAIR","61"
"CRRN_UBER","3350"
"DRUG_ZUELLIG","6"
"DPTM_CHAISAENG","3"
"HSPT_BANGKOK9","6"
"PTRL_PTT","1346"
"DINN_SP","698"
"ONLN_SHOPEE","6"
"AIRL_EMIRATESAIR","254"
"HSPT_SRIVICHAI","3"
"CSMT_AMWAY","185"
"DINN_LAEMCHAROEN","80"
"DINN_ZEN_REST","115"
"HSHL_CHICREP","16"
"AIRL_ETIHADAIR","92"
"FAHN_DAPPER","29"
"TRVL_NOOMSAO","1"
"PETS_DDOGDAILY","2"
"DRUG_PETCHARAT","10"
"ELCT_FUTUREAV","4"
"DRUG_OTHER","2730"
"JWLR_AURORA","206"
"CSMT_UNILEVER","59"
"DINN_SUSHIHANA","26"
"FAHN_OCC","13"
"DINN_OISHI_DELIVERY","4"
"FAHN_KTOPTIC","15"
"ELCT_ITCITY","205"
"FAHN_GUESS","35"
"DINN_JEFFERSTEK","164"
"DINN_PIZZAHUT","182"
"HSHL_IKEA","35"
"INSR_SOUTHEASTLIFE","29"
"HSPT_SAMITIVEJ","20"
"HTEL_PRINCE","13"
"DINN_13_COIN","8"
"HSPT_PRARAM9","9"
"HYPM_HOMEFRESHMART","38"
"DRUG_PANDF","142"
"FUND_OTHER","13"
"FAHN_TOPCHAROEN","1277"
"CRRN_WORLDCLASS","39"
"BEAU_PUEWDEE","27"
"AIRL_CHINA","73"
"HTEL_EVASON","3"
"FUND_ABERDEEN","1"
"BEAU_PAN","128"
"HYPM_TOPS","620"
"CRRN_OTHER","1609"
"ATMB_MILLENNIUM","19"
"FAHN_FNFACTORY","42"
"FAHN_HISHER","69"
"HSPT_BAANBOUNG","6"
"ELCT_IMOBILE","32"
"CRRN_SIXT","8"
"HSPT_SIRIRAJ","24"
"HSPT_RATTANATIBETH","3"
"DPTM_FRIDAY","8"
"DINN_SWENSENS","650"
"RLST_PRUKSA","21"
"JWLR_TIMEDECO","18"
"AIRL_SINGAPOREAIR","150"
"BEAU_SIAMLASER","34"
"RLST_GRANDUNITY","9"
"PTRL_OTHER","7740"
"INSR_PRUDENTIAL","93"
"FAHN_JASPAL","162"
"DINN_SUKISHI_BUFFET","31"
"AIRL_LION","359"
"HSHL_AMORN","156"
"ELCT_JAYMART","211"
"DINN_BANKLANGNAM","8"
"TRVL_ONEWORLD","2"
"HTEL_BANYANTREE","10"
"UTLT_COUNTER","4"
"HSHL_HOMEPRO","359"
"DUTY_OTHER","1115"
"DINN_OISHI_GROUP","12"
"HSPT_THONBURI","42"
"JWLR_HUASENGHENG","22"
"HSPT_RAMATHIBODI","8"
"AIRL_TIGER","41"
"CSMT_JEUNESSE","8"
"HSPT_KRUNGSIAM","4"
"FAHN_HERMES","2"
"HSHL_OTHER","9545"
"HTEL_OTHER","11812"
"HSHL_SIAMGLOBAL","271"
"FAHN_ZARA","372"
"TLCM_DTAC","199"
"FAHN_AIIZ","200"
"HTEL_ACCOR_MERCURE","85"
"HSPT_MISSION","3"
"HTEL_JOMTIEN","3"
"FAHN_UNIQLO","221"
"DINN_KUMPOON","12"
"INSR_TOKIOMARINE","512"
"JWLR_EYELAB","81"
"DINN_TOHKAI","42"
"HSPT_VICHAIYUT","8"
"STNR_LOFT","15"
"DPTM_INFINITE","4"
"JWLR_AUDEMARS","2"
"INSR_AIA","23479"
"HYPM_MAXVALUE","257"
"KIDS_OTHER","1592"
"ONLN_ALIEXPRESS","35"
"HSHL_DOHOME","59"
"ONLN_11STREET","7"
"HSHL_SB","39"
"JWLR_JUBILEE","26"
"ONLN_JD","1"
"HSPT_CHAOPHYA","8"
"DINN_YAMAGOYA","15"
"HTEL_ACCOR_NOVOTEL","117"
"DINN_CHOKCHAI","12"
"HSPT_CHULARAT","22"
"DINN_SPAGHETTI","9"
"ATMB_BMW","8"
"CSMT_JAELENG","4"
"HSHL_OMAZZ","4"
"DINN_FUJI","463"
"CSMT_EVEANDBOY","24"
"DPTM_CENTRAL","166"
"TRVL_EXPEDIA","2240"
"AIRL_UNITEDAIR","114"
"HTEL_ALEETA","5"
"UTLT_MWA","2"
"ELCT_OTHER","9667"
"HSPT_YANHEE","11"
"FAHN_COACH","163"
"JWLR_SWAROVSKI","20"
"DPTM_TAVEEKIJ","2"
"ELCT_HARDWAREHOUSE","17"
"DPTM_SERIDEPT","2"
"AIRL_BANGKOKAIR","906"
"SPRT_THENORTHFACE","17"
"HTEL_SHERATON","53"
"SLMM_OTHER","141"
"HTEL_RENAISSANCE","26"
"DINN_OISHI_KAKASHI","7"
"JWLR_PRIMAGOLD","20"
