"MERCHANT_GROUP","COUNT(*)"
"AIRL_THAIAIRWAYS","147"
"HSPT_BANGKOK","115"
"FAHN_LACOSTE","43"
"DINN_BOONTONGKEE","15"
"AIRL_ANAJAPAN","82"
"FAHN_KIPLING","44"
"DINN_OISHI_GRAND","2"
"DINN_OISHI_SHABUSHI","151"
"TLCM_OTHER","1058"
"DINN_CRG_PEPPERLUNCH","74"
"CSMT_SEPHORA","107"
"INSR_MANULIFE","231"
"CRRN_GRAB","8"
"DPTM_FAIRYLAND","6"
"HYPM_FOODLAND","63"
"DINN_BONCHON","97"
"HTEL_DUSIT","45"
"BEAU_NITIPOL","204"
"DINN_SAVOEY","31"
"DINN_TALINGPLING","16"
"INSR_SCB","41"
"HTEL_VERANDA","18"
"HSHL_MODERNFORM","13"
"DPTM_CHUMPHONOCEAN","12"
"DINN_BARBQPLAZA","284"
"ELCT_POWERBUY","184"
"HTEL_ACCOR_PULLMAN","36"
"INSR_SYNMUNKONG","180"
"AIRL_QATARAIR","82"
"DPTM_KLANGPLAZA","15"
"PETS_PKPETMART","3"
"UTLT_MEA","4"
"ONLN_GOOGLE","4799"
"SPRT_DECATHLON","40"
"CSMT_NUSKIN","37"
"INSR_THAIVIVAT","23"
"AIRL_JAPANAIR","125"
"AIRL_JETSTARAIR","166"
"HTEL_HARDROCK","6"
"DINN_KIMJU","17"
"DPTM_PARAGON","15"
"ATMB_CHEVROLET","20"
"AIRL_CANADA","1"
"HYPM_BOOTS","760"
"HSHL_INDEX","110"
"PETS_MALETKHAOPET","8"
"HSPT_BANGPAKOK","25"
"DINN_TEXASSUKI","10"
"INSR_ALIFE","8"
"SPRT_OTHER","2297"
"ELCT_BANANAIT","71"
"INSR_SCILIFE","316"
"DINN_SAKURA","16"
"DINN_NARAIPIZZARIA","22"
"CRRN_KRUNGTHAI","3"
"DINN_KALAPRAPRUEK","3"
"PETS_ROYALCANIN","2"
"SPRT_SPORTCITY","1"
"DINN_KFC","7"
"DINN_THEPIZZA","309"
"DINN_MCDONALD","439"
"INSR_BANGKOKINSURANCE","90"
"RLST_AP","37"
"HSPT_VIBHARAM","14"
"DINN_POMODORO_GUSTOSO","3"
"AIRL_AIRASIA","14099"
"HTEL_CENTARA","88"
"BEAU_APEX","42"
"DINN_SUSHIMASA","13"
"AIRL_PHILIPPINE","27"
"HSPT_BANGKOKCHRISTIAN","9"
"TRVL_AGODA","17"
"TRVL_COSMOS","1"
"DINN_ICHITAN_MELTME","1"
"HSPT_VIBHAVADI","11"
"ELCT_CAMERAWORLD","75"
"AIRL_FRANCE","67"
"DINN_FOURSEASONS","28"
"HSPT_LADPRAO","7"
"DRUG_ICAREHEALTH","49"
"FAHN_MANGO","78"
"INSR_DHIPAYA","67"
"AIRL_DUTCH","84"
"TRVL_CHAIRAK","10"
"FAHN_BOSSINI","25"
"TRVL_WONDERFUL","6"
"DINN_SANSAB","9"
"HYPM_OTHER","8458"
"INSR_VIRIYAH","140"
"DINN_CRG_OOTOYA","109"
"CSMT_ORIENTAL","734"
"ELCT_BIGCAMERA","243"
"AIRL_OTHER","5325"
"HTEL_HYATT","79"
"CRRN_AVIS","102"
"INSR_TESCO","135"
"DINN_STARBUCKS","1208"
"HSHL_HOMEHUB","16"
"AIRL_DELTA","76"
"CSMT_BODYSHOP","25"
"ELCT_APPLE","1"
"TRVL_DISCOVERY","1"
"ONLN_OMISE","314"
"TLCM_3BB","871"
"HSPT_NONTHAVEJ","9"
"HTEL_AIRBNB","1105"
"HYPM_GOURMET","34"
"FAHN_LOUISVUITTON","12"
"FAHN_ZALORA","2"
"CRRN_THAIRENT","27"
"HYPM_MAKRO","124"
"HYPM_GOLDENPLACE","26"
"HSPT_KLUAYNAMTHAI","5"
"JWLR_PANDORA","62"
"HTEL_LERMERIDIEN","23"
"DPTM_PARADISE","6"
"HSPT_BUMRUNGRAD","4"
"OTHR_OTHER","26871"
"DPTM_OTHER","4942"
"ATMB_MAZDA","104"
"HSPT_SAMITIVEJSRIRACHA","7"
"HSPT_HUACHIEW","7"
"DINN_HUAPLACHONG","26"
"HSPT_SIKARIN","6"
"TLCM_TOT","466"
"ONLN_FACEBOOK","16998"
"HSPL_MRT","127"
"DPTM_ISETON","37"
"SLMM_SLIMUP","18"
"HSHL_KONCEPT","2"
"KIDS_BALL_BALL","1"
"HYPM_711","6259"
"PETS_OTHER","1915"
"HSPT_SAMITIVEJSRINAKARIN","6"
"DINN_CRG_CHABUTON","49"
"BEAU_ROMRAWIN","17"
"INSR_AIG","15"
"HSPT_CHIANGMAIRAM","11"
"HTEL_HILTON","76"
"INSR_THAIOCEAN","63"
"ATMB_AAS","2"
"DPTM_KANOCKAN","6"
"ONLN_BLUEPAY","3"
"BEAU_PORNKASEM","65"
"HTEL_ACCOR_SOFITEL","36"
"ATMB_SUZUKI","59"
"HSPT_VEJTHANI","10"
"CSMT_KARMART","25"
"INSR_THAIINSURANCE","405"
"DINN_DAKGALBI","25"
"BEAU_PRUKSA","43"
"DINN_SCOOZI","35"
"HSPT_SIKARINHATYAI","2"
"ONLN_PAYPAL","4783"
"INSR_TQM","14"
"PETS_THONGLORPET","45"
"HSPT_CHULA","17"
"BEAU_SPARSHA","37"
"CRRN_BUDGET","12"
"INSR_ASIA","20"
"ONLN_WEMALL","4"
"TRVL_CHEAPTICKET","5"
"TRVL_FOREVER","1"
"HSHL_MEGAHOME","28"
"HSPL_BTS","122"
"HSPT_PAOLO","27"
"INSR_MUANGTHAILIFE","2971"
"CSMT_CUTEPRESS","302"
"HSPT_THAINAKARIN","5"
"TRVL_SBA","2"
"KIDS_KIDZUKA","1"
"FUND_MFC","2"
"RLST_ANANDA","9"
"DINN_SEEFAH","69"
"HSPL_THAITICKET","47"
"DPTM_SERMTHAICOMPLEX","5"
"HSHL_HAFELE","10"
"DINN_CRG_TERRACE","38"
"SLMM_MARIEFRANCE","1"
"HSPL_OTHER","1367"
"CSMT_OTHER","3731"
"INSR_FWD","78"
"DINN_DEANDELUCA","40"
"DINN_BLACKCANYON","369"
"ATMB_BQUIK","451"
"INSR_AACP","432"
"DINN_KASAJAPANESE","26"
"HTEL_MARIOTT","103"
"BEAU_KLINIQUE","42"
"FAHN_BOTTEGA","10"
"DPTM_KADKAM","3"
"FAHN_CHANEL","6"
"SPRT_FBT","17"
"FAHN_OPTICAL88","77"
"DINN_YUMSAAP","105"
"JWLR_MODERNOPTICAL","22"
"KIDS_NADZ_PROJECT","11"
"PTRL_CALTEX","17"
"ATMB_TOYOTA","949"
"ATMB_HONDA","583"
"RLST_OTHER","1718"
"SPRT_SUPERSPORT","404"
"DINN_HONGMIN","18"
"INSR_GENERALI","58"
"DINN_OISHI_RAMEN","11"
"SPRT_SPORTWORLD","9"
"DINN_CRG_COLDSTONE","36"
"ELCT_ADVICE","122"
"DINN_COCO_ICHIBAN","15"
"KIDS_KIDDO_PACIFIC","3"
"HSPT_KASEMRAD","31"
"FAHN_HANDM","216"
"DINN_COCA","43"
"TLCM_CAT","154"
"KIDS_TOYRUS","38"
"DINN_SUKISHI_BBQ","10"
"INSR_THANACHARTLIFE","15"
"HSHL_CPAC","7"
"DPTM_EMQUARTIER","7"
"ATMB_ISUZU","306"
"BEAU_FITNESSFIRST","163"
"HSPT_BNH","6"
"DINN_LITTLEHOME","17"
"JWLR_CITYCHAIN","18"
"KIDS_ROCKINGKIDS","2"
"HSPT_OTHER","1050"
"DPTM_THEMALL","74"
"ATMB_FORD","42"
"HSPT_BANGMOD","4"
"HTEL_SIAMKEMPINSKI","2"
"CRRN_RENTALCARS","13"
"TRVL_CHARAL","7"
"DPTM_SERMTHAIPLAZA","2"
"DINN_YAYOI","320"
"AIRL_THAISMILES","267"
"TLCM_TRUE","16169"
"BEAU_RAJDHEVEE","98"
"HTEL_ACCOR_IBIS","107"
"INSR_SIAMSAMSUNG","17"
"PETS_DOCTORNOK","5"
"FAHN_LEVI","113"
"HTEL_INTERCONTINENTAL","28"
"INSR_MUANGTHAIINS","27"
"FUND_LANDNHOUSE","1"
"ONLN_ITUNE","11"
"DRUG_GNC","37"
"ATMB_BRIDGESTONE","188"
"HSPT_PIYAVATE","7"
"AIRL_BRITISHAIR","73"
"JWLR_MAETHONGSUK","10"
"AIRL_NEWZEALAND","6"
"ELCT_TRUE","1019"
"DRUG_FASCINO","162"
"CSMT_BEAUTYBUFFET","372"
"HTEL_ANANTARA","39"
"DUTY_KINGPOWER","96"
"DINN_NITTAYAKAI","30"
"DINN_GOODVIEW","17"
"RLST_NARAI","1"
"EDUC_OTHER","2819"
"DINN_SANTAFESTEAK","270"
"HYPM_VILLAMARKET","139"
"DINN_ZEN_ON_TABLE","43"
"FAHN_LYN","239"
"JWLR_BETTERVISION","312"
"ONLN_AIRPAY","11"
"HTEL_AMARI","28"
"AIRL_AMERICAN","51"
"KIDS_ALPHAKID","10"
"DINN_YUU_JANG","3"
"AIRL_SWISSAIR","95"
"TLCM_AIS","19"
"TRVL_BOOKING","294"
"BEAU_WEFITNESS","310"
"RLST_LPN","26"
"TRVL_QUALITY","4"
"HTEL_LIMACOCO","4"
"HYPM_BIGC","1565"
"INSR_CHUBB","182"
"FAHN_CHAPS","101"
"HTEL_HOLIDAYINN","111"
"DINN_YUU_UPTOYUU","3"
"TRVL_STDELUXE","4"
"FAHN_OTHER","23583"
"DINN_OTHER","31251"
"FUND_PHATRA","41"
"BEAU_HEALTHLAND","44"
"AIRL_MALAYSLAN","182"
"BEAU_ABSOLUTE_HEALTH","13"
"DRUG_PHARMAX","20"
"TRVL_SIXSTAR","7"
"TRVL_HIS","9"
"HYPM_TESCO","3799"
"BEAU_OTHER","7949"
"DINN_AUBONPAIN","180"
"HSHL_VERASU","59"
"DINN_POMODORO_AMICI","4"
"HSPT_SYNPHAET","12"
"FAHN_PRADA","47"
"HSPT_PHYATHAI2","6"
"HSPT_PHYATHAI3","6"
"RLST_SANSIRI","16"
"ELCT_DTAC","1261"
"INSR_BANGKOK LIFE","66"
"ATMB_COCKPIT","81"
"DINN_ICHITAN_ZAABELI","10"
"DINN_HONMONO","17"
"KIDS_TAMASHII_ERA","3"
"HSPT_TAKSON","2"
"FAHN_BOYY","2"
"DINN_YUU_ANDFRIEND","2"
"FAHN_BATA","444"
"TRVL_OTHER","2563"
"ELCT_AIS","1756"
"HYPM_CP","366"
"DPTM_DIANA","16"
"DINN_BURGERKING","31"
"DINN_COFFEEBEANSDAO","50"
"ATMB_LEXUS","6"
"DINN_DINTAIFUNG","31"
"AIRL_GARUDA","6"
"ATMB_TYREPLUS","9"
"RLST_MAJOR","3"
"PTRL_SHELL","1544"
"INSR_CIGNA","41"
"HSPT_NAKORNTHON","9"
"HSPT_SAMITIVEJTHONBURI","5"
"DPTM_LAMPANGSERI","3"
"DINN_SANDP","2"
"DPTM_VOGUE","4"
"CSMT_MISTINE","2"
"PTRL_BANGCHAK","2173"
"STNR_OFFICEMATE","207"
"ELCT_JIB","278"
"CSMT_UNICITY","21"
"DINN_ZEN_AKA","36"
"TRVL_MAJESTIC","2"
"DINN_SIZZLER","9"
"HSPT_PATTAYAMEMORIAL","4"
"DPTM_TOKYU","19"
"ATMB_AUTOBOY","10"
"DPTM_ROBINSON","177"
"DRUG_TSURUHA","44"
"BEAU_VIRGINACTIVE","2014"
"AIRL_NOKAIR","3254"
"DPTM_EMPORIUM","9"
"DINN_BUA","20"
"ONLN_LAZADA","15"
"HTEL_PLAZAATHENEE","3"
"INSR_ACS","3"
"DINN_ZEN_GYU_GRILL","2"
"TRVL_TRAVELOKA","19482"
"HSHL_HOMEWORK","109"
"CSMT_GIFFARINE","199"
"FUND_KSAM","30"
"ATMB_OTHER","8966"
"INSR_OTHER","8598"
"JWLR_OPTICSQUARE","36"
"DINN_HUASENGHONG","174"
"HSHL_POWERMALL","13"
"FAHN_CHARLESKEITH","73"
"INSR_KRUNGTHAIAXA","234"
"HSPT_SUKHUMVIT","3"
"HYPM_WATSON","1393"
"PTRL_ESSO","1307"
"AIRL_LUFTHANSA","104"
"DINN_SUKISHI_SEOULGRILL","2"
"HSPT_PHYATHAI1","6"
"HSPL_SF","356"
"HSHL_GRANDHOMEMART","17"
"HTEL_PENINSULA","6"
"FAHN_CCOO","111"
"HSPT_PHYATHAISRIRACHA","5"
"DINN_OISHI_NIKUYA","20"
"AIRL_EVAAIR","141"
"HSPT_BANGNA","5"
"DINN_SAMYANSEAFOOD","6"
"RLST_LANDANDHOUSE","4"
"KIDS_HAPPY_CONSOLE","3"
"HSPT_BANGPO","3"
"DPTM_NASASHOP","1"
"DINN_VIETCUISINE","21"
"HSPL_MAJOR","418"
"DPTM_TANGHUASENG","12"
"ATMB_NISSAN","219"
"JWLR_TAGHEUER","6"
"HSPT_RAMKHAMHAENG","10"
"CSMT_HERBALLIFE","16"
"DINN_LEECAFE","18"
"HSPT_RANGSIT","3"
"DINN_YUU_REST","3"
"FAHN_ICC","44"
"PTRL_PT","2811"
"DINN_MKSUKI","1854"
"INSR_NEWHAMPSHIRES","24"
"HSPT_STLOUIS","9"
"ELCT_ISTUDIO","45"
"AIRL_CATHAY","309"
"DPTM_FAIRYPLAZA","3"
"DINN_CRG_YOSHINOYA","56"
"CRRN_HERTZ","43"
"BEAU_WUTTISAK","98"
"BEAU_WONGSADA","7"
"JWLR_REGENTDIAMOND","8"
"HTEL_ACCOR_ALLSEASON","1"
"DINN_HOTPOT","1"
"JWLR_OTHER","6742"
"SPRT_ADIDAS","188"
"INSR_SILKSPAN","3"
"RLST_PROPERTY","38"
"AIRL_QANTAS","33"
"DINN_BANANALEAF","22"
"ATMB_MITSUBISHI","15"
"DINN_TIMHOWAN","15"
"RLST_SUPALAI","21"
"JWLR_PENDULUM","12"
"ONLN_EASYBILLS","2"
"AIRL_KOREANAIR","72"
"CRRN_UBER","3159"
"STNR_B2S","288"
"HSHL_BOONTHAVORN","120"
"INSR_THAILIFE","306"
"DPTM_ZEN","3"
"DRUG_ZUELLIG","7"
"DPTM_CHAISAENG","5"
"HSPT_BANGKOK9","7"
"ONLN_SHOPEE","6"
"PTRL_PTT","1167"
"DINN_SP","779"
"AIRL_EMIRATESAIR","251"
"HSPT_SRIVICHAI","2"
"DINN_LAEMCHAROEN","76"
"CSMT_AMWAY","199"
"FAHN_DAPPER","19"
"DINN_ZEN_REST","112"
"AIRL_ETIHADAIR","88"
"HSHL_CHICREP","15"
"PETS_DDOGDAILY","1"
"DRUG_PETCHARAT","8"
"ELCT_FUTUREAV","3"
"JWLR_AURORA","196"
"DRUG_OTHER","2808"
"CSMT_UNILEVER","61"
"DINN_SUSHIHANA","24"
"FAHN_KTOPTIC","19"
"FAHN_OCC","9"
"TRVL_WORLDSURPRISE","5"
"DINN_OISHI_DELIVERY","5"
"ELCT_ITCITY","201"
"FAHN_GUESS","46"
"HSHL_IKEA","37"
"INSR_SOUTHEASTLIFE","28"
"DINN_JEFFERSTEK","149"
"DINN_PIZZAHUT","206"
"HTEL_PRINCE","12"
"HSPT_SAMITIVEJ","22"
"DINN_13_COIN","4"
"HYPM_HOMEFRESHMART","37"
"CRRN_WORLDCLASS","50"
"HSPT_PRARAM9","11"
"FAHN_TOPCHAROEN","1188"
"FUND_OTHER","22"
"DRUG_PANDF","142"
"AIRL_CHINA","68"
"BEAU_PUEWDEE","24"
"FUND_ABERDEEN","1"
"HTEL_EVASON","1"
"HYPM_TOPS","658"
"ATMB_MILLENNIUM","19"
"CRRN_OTHER","1725"
"FAHN_HISHER","84"
"FAHN_FNFACTORY","49"
"BEAU_PAN","123"
"HSPT_BAANBOUNG","6"
"CRRN_SIXT","45"
"ELCT_IMOBILE","27"
"DPTM_FRIDAY","10"
"HSPT_SIRIRAJ","27"
"HSPT_RATTANATIBETH","3"
"KIDS_PHANTOM","1"
"AIRL_SINGAPOREAIR","166"
"DINN_SWENSENS","630"
"RLST_PRUKSA","28"
"JWLR_TIMEDECO","25"
"BEAU_SIAMLASER","38"
"RLST_GRANDUNITY","9"
"PTRL_OTHER","8739"
"FAHN_JASPAL","135"
"ELCT_JAYMART","216"
"INSR_PRUDENTIAL","95"
"DINN_BANKLANGNAM","8"
"HSHL_AMORN","133"
"DINN_SUKISHI_BUFFET","35"
"AIRL_LION","474"
"HTEL_BANYANTREE","10"
"TRVL_ONEWORLD","4"
"UTLT_COUNTER","4"
"HSHL_HOMEPRO","371"
"HSPT_THONBURI","38"
"DUTY_OTHER","1099"
"DINN_OISHI_GROUP","13"
"HSPT_RAMATHIBODI","11"
"AIRL_TIGER","43"
"JWLR_HUASENGHENG","21"
"CSMT_JEUNESSE","12"
"HSPT_KRUNGSIAM","6"
"FAHN_HERMES","3"
"HSHL_OTHER","12318"
"FAHN_AIIZ","287"
"HTEL_OTHER","11785"
"FAHN_ZARA","300"
"HSHL_SIAMGLOBAL","285"
"TLCM_DTAC","563"
"HTEL_ACCOR_MERCURE","81"
"HSPT_MISSION","2"
"HTEL_JOMTIEN","3"
"DINN_TOHKAI","43"
"FAHN_UNIQLO","241"
"JWLR_EYELAB","73"
"INSR_TOKIOMARINE","1631"
"HSPT_VICHAIYUT","8"
"DINN_KUMPOON","17"
"JWLR_AUDEMARS","3"
"STNR_LOFT","18"
"DPTM_INFINITE","3"
"KIDS_OTHER","1801"
"INSR_AIA","24038"
"HYPM_MAXVALUE","228"
"HSHL_SB","38"
"HSHL_DOHOME","50"
"ONLN_11STREET","6"
"JWLR_JUBILEE","26"
"ONLN_ALIEXPRESS","36"
"ONLN_JD","3"
"DINN_YAMAGOYA","10"
"HSPT_CHAOPHYA","8"
"DINN_CHOKCHAI","12"
"HTEL_ACCOR_NOVOTEL","105"
"HSPT_CHULARAT","20"
"DINN_SPAGHETTI","9"
"ATMB_BMW","8"
"CSMT_JAELENG","4"
"HSHL_OMAZZ","5"
"DINN_FUJI","470"
"CSMT_EVEANDBOY","28"
"DPTM_CENTRAL","182"
"TRVL_EXPEDIA","3509"
"AIRL_UNITEDAIR","113"
"HTEL_ALEETA","1"
"UTLT_MWA","2"
"ELCT_OTHER","10103"
"HSPT_YANHEE","8"
"FAHN_COACH","148"
"JWLR_SWAROVSKI","16"
"FAHN_WONDERFUL","1"
"ELCT_HARDWAREHOUSE","17"
"DPTM_SERIDEPT","2"
"DPTM_TAVEEKIJ","2"
"SLMM_OTHER","142"
"AIRL_BANGKOKAIR","959"
"HTEL_SHERATON","54"
"HTEL_RENAISSANCE","24"
"JWLR_PRIMAGOLD","20"
"SPRT_THENORTHFACE","23"
"DINN_OISHI_KAKASHI","9"
